# Wavefront .OBJ file for tesselated shape: leg11-1 path: C:\Users\Amin\Documents\soro_chrono_amin\PyChrono\intestine controls\CadBased\leg11.SLDPRT

g body_1
v -0.001127 -0.001100 0.000000
v -0.001127 -0.001100 0.008000
v 0.001127 -0.001100 0.008000
v 0.001127 -0.001100 0.000000
v -0.001411 -0.000700 0.008000
v -0.001127 -0.001100 0.008000
v -0.001127 -0.001100 0.000000
v -0.001558 -0.000232 0.008000
v -0.001411 -0.000700 0.000000
v -0.001554 0.000258 0.008000
v -0.001558 -0.000232 0.000000
v -0.001399 0.000723 0.008000
v -0.001554 0.000258 0.000000
v -0.001109 0.001118 0.008000
v -0.001399 0.000723 0.000000
v -0.000712 0.001405 0.008000
v -0.001109 0.001118 0.000000
v -0.000245 0.001556 0.008000
v -0.000712 0.001405 0.000000
v 0.000245 0.001556 0.008000
v -0.000245 0.001556 0.000000
v 0.000712 0.001405 0.008000
v 0.000245 0.001556 0.000000
v 0.001109 0.001118 0.008000
v 0.000712 0.001405 0.000000
v 0.001399 0.000723 0.008000
v 0.001109 0.001118 0.000000
v 0.001554 0.000258 0.008000
v 0.001399 0.000723 0.000000
v 0.001558 -0.000232 0.008000
v 0.001554 0.000258 0.000000
v 0.001411 -0.000700 0.008000
v 0.001558 -0.000232 0.000000
v 0.001127 -0.001100 0.008000
v 0.001411 -0.000700 0.000000
v 0.001127 -0.001100 0.000000
v -0.003464 0.012271 0.000000
v -0.002162 0.008994 0.000000
v -0.003206 0.008677 0.000000
v -0.002095 0.012577 0.000000
v -0.001089 0.009186 0.000000
v -0.000701 0.012731 0.000000
v 0.000000 0.009250 0.000000
v -0.004790 0.011816 0.000000
v -0.004205 0.008239 0.000000
v 0.000701 0.012731 0.000000
v 0.002095 0.012577 0.000000
v 0.001089 0.009186 0.000000
v 0.003464 0.012271 0.000000
v 0.002162 0.008994 0.000000
v 0.004790 0.011816 0.000000
v 0.003206 0.008677 0.000000
v 0.009293 0.000483 0.000000
v 0.010149 0.000000 0.000000
v 0.009813 0.000058 0.000000
v -0.010149 0.000000 0.000000
v -0.009293 0.000483 0.000000
v -0.009517 0.000225 0.000000
v 0.006059 0.011218 0.000000
v 0.004205 0.008239 0.000000
v 0.009517 0.000225 0.000000
v 0.009169 0.000800 0.000000
v 0.012545 0.000454 0.000000
v 0.011707 0.000000 0.000000
v 0.003950 0.006369 0.000000
v 0.004677 0.003959 0.000000
v 0.003943 0.003780 0.000000
v -0.009169 0.000800 0.000000
v -0.011707 0.000000 0.000000
v 0.012322 0.000211 0.000000
v 0.012033 0.000054 0.000000
v 0.001411 0.005245 0.000000
v 0.002200 0.005740 0.000000
v 0.003255 0.003467 0.000000
v 0.003053 0.006117 0.000000
v -0.003950 0.006369 0.000000
v -0.003053 0.006117 0.000000
v -0.003943 0.003780 0.000000
v -0.001411 0.005245 0.000000
v -0.002639 0.003030 0.000000
v -0.003255 0.003467 0.000000
v -0.012033 0.000054 0.000000
v -0.012322 0.000211 0.000000
v -0.009813 0.000058 0.000000
v 0.007254 0.010485 0.000000
v 0.004484 0.008027 0.000000
v 0.008125 0.002781 0.000000
v 0.007551 0.003272 0.000000
v 0.002639 0.003030 0.000000
v 0.000700 0.004642 0.000000
v 0.004276 0.006498 0.000000
v -0.004276 0.006498 0.000000
v -0.004677 0.003959 0.000000
v -0.005431 0.003996 0.000000
v -0.002200 0.005740 0.000000
v -0.012545 0.000454 0.000000
v -0.004537 0.006732 0.000000
v -0.006180 0.003891 0.000000
v -0.006059 0.011218 0.000000
v -0.004484 0.008027 0.000000
v 0.004749 0.007390 0.000000
v 0.004674 0.007732 0.000000
v 0.008362 0.009625 0.000000
v 0.004702 0.007042 0.000000
v 0.010261 0.007567 0.000000
v 0.004537 0.006732 0.000000
v 0.012704 0.001085 0.000000
v 0.012677 0.000756 0.000000
v 0.006894 0.003646 0.000000
v 0.006180 0.003891 0.000000
v 0.008949 0.001523 0.000000
v 0.008597 0.002191 0.000000
v 0.005431 0.003996 0.000000
v -0.000700 0.004642 0.000000
v -0.008949 0.001523 0.000000
v -0.008125 0.002781 0.000000
v -0.008597 0.002191 0.000000
v -0.007551 0.003272 0.000000
v -0.006894 0.003646 0.000000
v -0.012160 0.003832 0.000000
v -0.011666 0.005145 0.000000
v -0.012677 0.000756 0.000000
v -0.004749 0.007390 0.000000
v -0.009368 0.008649 0.000000
v -0.008362 0.009625 0.000000
v -0.004674 0.007732 0.000000
v -0.007254 0.010485 0.000000
v 0.009368 0.008649 0.000000
v 0.011030 0.006395 0.000000
v 0.012508 0.002474 0.000000
v 0.002411 0.002746 0.000000
v 0.000378 0.004430 0.000000
v -0.002411 0.002746 0.000000
v -0.012508 0.002474 0.000000
v -0.012704 0.001085 0.000000
v -0.004702 0.007042 0.000000
v -0.011030 0.006395 0.000000
v -0.010261 0.007567 0.000000
v 0.011666 0.005145 0.000000
v 0.012160 0.003832 0.000000
v -0.000378 0.004430 0.000000
v -0.002997 -0.000145 0.000000
v -0.002957 0.000505 0.000000
v -0.001554 0.000258 0.000000
v 0.002469 0.001704 0.000000
v 0.002997 -0.000145 0.000000
v 0.002895 -0.000788 0.000000
v 0.002778 0.001132 0.000000
v 0.000712 0.001405 0.000000
v 0.000245 0.001556 0.000000
v 0.001399 0.000723 0.000000
v 0.001109 0.001118 0.000000
v 0.002293 -0.001934 0.000000
v 0.001127 -0.001100 0.000000
v 0.001411 -0.000700 0.000000
v -0.001558 -0.000232 0.000000
v 0.002957 0.000505 0.000000
v 0.002656 -0.001394 0.000000
v 0.002320 0.002037 0.000000
v 0.002300 0.002400 0.000000
v 0.001554 0.000258 0.000000
v 0.001558 -0.000232 0.000000
v -0.000712 0.001405 0.000000
v -0.001109 0.001118 0.000000
v -0.000245 0.001556 0.000000
v 0.000000 0.004356 0.000000
v -0.002300 0.002400 0.000000
v -0.002320 0.002037 0.000000
v -0.002778 0.001132 0.000000
v 0.001822 -0.002384 0.000000
v -0.001399 0.000723 0.000000
v -0.002469 0.001704 0.000000
v -0.001127 -0.001100 0.000000
v -0.000647 -0.002929 0.000000
v -0.001264 -0.002721 0.000000
v 0.000000 -0.003000 0.000000
v 0.000647 -0.002929 0.000000
v 0.001264 -0.002721 0.000000
v -0.002293 -0.001934 0.000000
v -0.002656 -0.001394 0.000000
v -0.001411 -0.000700 0.000000
v -0.002895 -0.000788 0.000000
v -0.001822 -0.002384 0.000000
v 0.000701 0.012731 0.008000
v 0.000000 0.009250 0.008000
v 0.001089 0.009186 0.008000
v -0.003464 0.012271 0.008000
v -0.004790 0.011816 0.008000
v -0.003206 0.008677 0.008000
v -0.006059 0.011218 0.008000
v -0.004205 0.008239 0.008000
v 0.003464 0.012271 0.008000
v 0.002162 0.008994 0.008000
v 0.003206 0.008677 0.008000
v 0.002095 0.012577 0.008000
v -0.000701 0.012731 0.008000
v -0.002095 0.012577 0.008000
v -0.001089 0.009186 0.008000
v -0.002162 0.008994 0.008000
v 0.009813 0.000058 0.008000
v 0.009169 0.000800 0.008000
v 0.009293 0.000483 0.008000
v 0.004790 0.011816 0.008000
v 0.004205 0.008239 0.008000
v -0.010149 0.000000 0.008000
v -0.009813 0.000058 0.008000
v -0.009517 0.000225 0.008000
v -0.003950 0.006369 0.008000
v -0.004677 0.003959 0.008000
v -0.003943 0.003780 0.008000
v 0.010149 0.000000 0.008000
v 0.011707 0.000000 0.008000
v 0.009517 0.000225 0.008000
v -0.004537 0.006732 0.008000
v -0.006894 0.003646 0.008000
v -0.006180 0.003891 0.008000
v -0.009293 0.000483 0.008000
v -0.009169 0.000800 0.008000
v -0.012545 0.000454 0.008000
v -0.011707 0.000000 0.008000
v -0.001411 0.005245 0.008000
v -0.002200 0.005740 0.008000
v -0.003255 0.003467 0.008000
v -0.003053 0.006117 0.008000
v 0.003950 0.006369 0.008000
v 0.003053 0.006117 0.008000
v 0.003943 0.003780 0.008000
v 0.012545 0.000454 0.008000
v 0.012033 0.000054 0.008000
v 0.006059 0.011218 0.008000
v 0.004484 0.008027 0.008000
v -0.012704 0.001085 0.008000
v -0.012677 0.000756 0.008000
v -0.007551 0.003272 0.008000
v -0.008125 0.002781 0.008000
v -0.012322 0.000211 0.008000
v -0.002639 0.003030 0.008000
v -0.000700 0.004642 0.008000
v -0.004276 0.006498 0.008000
v -0.005431 0.003996 0.008000
v 0.004677 0.003959 0.008000
v 0.004276 0.006498 0.008000
v 0.002200 0.005740 0.008000
v 0.003255 0.003467 0.008000
v 0.001411 0.005245 0.008000
v 0.002639 0.003030 0.008000
v -0.007254 0.010485 0.008000
v -0.004484 0.008027 0.008000
v -0.012508 0.002474 0.008000
v -0.008949 0.001523 0.008000
v -0.008597 0.002191 0.008000
v -0.012033 0.000054 0.008000
v 0.008949 0.001523 0.008000
v 0.004537 0.006732 0.008000
v 0.007551 0.003272 0.008000
v 0.004749 0.007390 0.008000
v 0.009368 0.008649 0.008000
v 0.008362 0.009625 0.008000
v -0.004674 0.007732 0.008000
v -0.004749 0.007390 0.008000
v -0.008362 0.009625 0.008000
v -0.004702 0.007042 0.008000
v -0.010261 0.007567 0.008000
v -0.012160 0.003832 0.008000
v -0.011666 0.005145 0.008000
v -0.002411 0.002746 0.008000
v -0.000378 0.004430 0.008000
v 0.005431 0.003996 0.008000
v 0.000700 0.004642 0.008000
v 0.008597 0.002191 0.008000
v 0.006894 0.003646 0.008000
v 0.006180 0.003891 0.008000
v 0.012677 0.000756 0.008000
v 0.010261 0.007567 0.008000
v 0.004674 0.007732 0.008000
v 0.007254 0.010485 0.008000
v -0.009368 0.008649 0.008000
v -0.011030 0.006395 0.008000
v 0.002411 0.002746 0.008000
v 0.008125 0.002781 0.008000
v 0.012704 0.001085 0.008000
v -0.002778 0.001132 0.008000
v -0.002997 -0.000145 0.008000
v -0.002895 -0.000788 0.008000
v 0.000378 0.004430 0.008000
v 0.012160 0.003832 0.008000
v 0.011666 0.005145 0.008000
v 0.012508 0.002474 0.008000
v 0.001554 0.000258 0.008000
v 0.002957 0.000505 0.008000
v 0.002778 0.001132 0.008000
v 0.002997 -0.000145 0.008000
v -0.002957 0.000505 0.008000
v -0.000245 0.001556 0.008000
v 0.000245 0.001556 0.008000
v 0.000000 0.004356 0.008000
v -0.002656 -0.001394 0.008000
v -0.001554 0.000258 0.008000
v -0.001399 0.000723 0.008000
v -0.001411 -0.000700 0.008000
v -0.001558 -0.000232 0.008000
v -0.002293 -0.001934 0.008000
v -0.001127 -0.001100 0.008000
v 0.012322 0.000211 0.008000
v 0.004702 0.007042 0.008000
v 0.011030 0.006395 0.008000
v 0.002320 0.002037 0.008000
v 0.001558 -0.000232 0.008000
v -0.002469 0.001704 0.008000
v -0.002320 0.002037 0.008000
v -0.002300 0.002400 0.008000
v -0.000712 0.001405 0.008000
v -0.001109 0.001118 0.008000
v 0.000712 0.001405 0.008000
v 0.001109 0.001118 0.008000
v 0.002300 0.002400 0.008000
v 0.002469 0.001704 0.008000
v -0.001822 -0.002384 0.008000
v 0.001399 0.000723 0.008000
v 0.001127 -0.001100 0.008000
v 0.000647 -0.002929 0.008000
v 0.001264 -0.002721 0.008000
v -0.000647 -0.002929 0.008000
v 0.000000 -0.003000 0.008000
v -0.001264 -0.002721 0.008000
v 0.002293 -0.001934 0.008000
v 0.002656 -0.001394 0.008000
v 0.001411 -0.000700 0.008000
v 0.002895 -0.000788 0.008000
v 0.001822 -0.002384 0.008000
v 0.011707 0.000000 0.008000
v 0.011707 0.000000 0.000000
v 0.012033 0.000054 0.000000
v 0.012033 0.000054 0.008000
v 0.012322 0.000211 0.000000
v 0.012322 0.000211 0.008000
v 0.012545 0.000454 0.000000
v 0.012545 0.000454 0.008000
v 0.012677 0.000756 0.000000
v 0.012677 0.000756 0.008000
v 0.012704 0.001085 0.000000
v 0.012704 0.001085 0.008000
v -0.012704 0.001085 0.000000
v -0.012704 0.001085 0.008000
v -0.012508 0.002474 0.008000
v -0.012508 0.002474 0.000000
v -0.012160 0.003832 0.008000
v -0.012160 0.003832 0.000000
v -0.011666 0.005145 0.008000
v -0.011666 0.005145 0.000000
v -0.011030 0.006395 0.008000
v -0.011030 0.006395 0.000000
v -0.010261 0.007567 0.008000
v -0.010261 0.007567 0.000000
v -0.009368 0.008649 0.008000
v -0.009368 0.008649 0.000000
v -0.008362 0.009625 0.008000
v -0.008362 0.009625 0.000000
v -0.007254 0.010485 0.008000
v -0.007254 0.010485 0.000000
v -0.006059 0.011218 0.008000
v -0.006059 0.011218 0.000000
v -0.004790 0.011816 0.008000
v -0.004790 0.011816 0.000000
v -0.003464 0.012271 0.008000
v -0.003464 0.012271 0.000000
v -0.002095 0.012577 0.008000
v -0.002095 0.012577 0.000000
v -0.000701 0.012731 0.008000
v -0.000701 0.012731 0.000000
v 0.000701 0.012731 0.008000
v 0.000701 0.012731 0.000000
v 0.002095 0.012577 0.008000
v 0.002095 0.012577 0.000000
v 0.003464 0.012271 0.008000
v 0.003464 0.012271 0.000000
v 0.004790 0.011816 0.008000
v 0.004790 0.011816 0.000000
v 0.006059 0.011218 0.008000
v 0.006059 0.011218 0.000000
v 0.007254 0.010485 0.008000
v 0.007254 0.010485 0.000000
v 0.008362 0.009625 0.008000
v 0.008362 0.009625 0.000000
v 0.009368 0.008649 0.008000
v 0.009368 0.008649 0.000000
v 0.010261 0.007567 0.008000
v 0.010261 0.007567 0.000000
v 0.011030 0.006395 0.008000
v 0.011030 0.006395 0.000000
v 0.011666 0.005145 0.008000
v 0.011666 0.005145 0.000000
v 0.012160 0.003832 0.008000
v 0.012160 0.003832 0.000000
v 0.012508 0.002474 0.008000
v 0.012508 0.002474 0.000000
v 0.012704 0.001085 0.008000
v 0.012704 0.001085 0.000000
v -0.011707 0.000000 0.000000
v -0.011707 0.000000 0.008000
v -0.012033 0.000054 0.008000
v -0.012033 0.000054 0.000000
v -0.012322 0.000211 0.008000
v -0.012322 0.000211 0.000000
v -0.012545 0.000454 0.008000
v -0.012545 0.000454 0.000000
v -0.012677 0.000756 0.008000
v -0.012677 0.000756 0.000000
v -0.012704 0.001085 0.008000
v -0.012704 0.001085 0.000000
v 0.004276 0.006498 0.000000
v 0.003950 0.006369 0.000000
v 0.003950 0.006369 0.008000
v 0.004537 0.006732 0.000000
v 0.004276 0.006498 0.008000
v 0.004702 0.007042 0.000000
v 0.004537 0.006732 0.008000
v 0.004749 0.007390 0.000000
v 0.004702 0.007042 0.008000
v 0.004674 0.007732 0.000000
v 0.004749 0.007390 0.008000
v 0.004484 0.008027 0.000000
v 0.004674 0.007732 0.008000
v 0.004205 0.008239 0.000000
v 0.004484 0.008027 0.008000
v 0.004205 0.008239 0.008000
v 0.003206 0.008677 0.000000
v 0.004205 0.008239 0.000000
v 0.004205 0.008239 0.008000
v 0.002162 0.008994 0.000000
v 0.003206 0.008677 0.008000
v 0.001089 0.009186 0.000000
v 0.002162 0.008994 0.008000
v 0.000000 0.009250 0.000000
v 0.001089 0.009186 0.008000
v -0.001089 0.009186 0.000000
v 0.000000 0.009250 0.008000
v -0.002162 0.008994 0.000000
v -0.001089 0.009186 0.008000
v -0.003206 0.008677 0.000000
v -0.002162 0.008994 0.008000
v -0.004205 0.008239 0.000000
v -0.003206 0.008677 0.008000
v -0.004205 0.008239 0.008000
v -0.004484 0.008027 0.000000
v -0.004205 0.008239 0.000000
v -0.004205 0.008239 0.008000
v -0.004674 0.007732 0.000000
v -0.004484 0.008027 0.008000
v -0.004749 0.007390 0.000000
v -0.004674 0.007732 0.008000
v -0.004702 0.007042 0.000000
v -0.004749 0.007390 0.008000
v -0.004537 0.006732 0.000000
v -0.004702 0.007042 0.008000
v -0.004276 0.006498 0.000000
v -0.004537 0.006732 0.008000
v -0.003950 0.006369 0.000000
v -0.004276 0.006498 0.008000
v -0.003950 0.006369 0.008000
v -0.003950 0.006369 0.000000
v -0.003950 0.006369 0.008000
v -0.003053 0.006117 0.008000
v -0.003053 0.006117 0.000000
v -0.002200 0.005740 0.008000
v -0.002200 0.005740 0.000000
v -0.001411 0.005245 0.008000
v -0.001411 0.005245 0.000000
v -0.000700 0.004642 0.008000
v -0.000700 0.004642 0.000000
v -0.000378 0.004430 0.000000
v -0.000700 0.004642 0.000000
v -0.000700 0.004642 0.008000
v 0.000000 0.004356 0.000000
v -0.000378 0.004430 0.008000
v 0.000378 0.004430 0.000000
v 0.000000 0.004356 0.008000
v 0.000700 0.004642 0.000000
v 0.000378 0.004430 0.008000
v 0.000700 0.004642 0.008000
v 0.000700 0.004642 0.000000
v 0.000700 0.004642 0.008000
v 0.001411 0.005245 0.008000
v 0.001411 0.005245 0.000000
v 0.002200 0.005740 0.008000
v 0.002200 0.005740 0.000000
v 0.003053 0.006117 0.008000
v 0.003053 0.006117 0.000000
v 0.003950 0.006369 0.008000
v 0.003950 0.006369 0.000000
v -0.002320 0.002037 0.000000
v -0.002469 0.001704 0.000000
v -0.002469 0.001704 0.008000
v -0.002300 0.002400 0.000000
v -0.002320 0.002037 0.008000
v -0.002411 0.002746 0.000000
v -0.002300 0.002400 0.008000
v -0.002639 0.003030 0.000000
v -0.002411 0.002746 0.008000
v -0.002639 0.003030 0.008000
v -0.003255 0.003467 0.000000
v -0.002639 0.003030 0.000000
v -0.002639 0.003030 0.008000
v -0.003943 0.003780 0.000000
v -0.003255 0.003467 0.008000
v -0.004677 0.003959 0.000000
v -0.003943 0.003780 0.008000
v -0.005431 0.003996 0.000000
v -0.004677 0.003959 0.008000
v -0.006180 0.003891 0.000000
v -0.005431 0.003996 0.008000
v -0.006894 0.003646 0.000000
v -0.006180 0.003891 0.008000
v -0.007551 0.003272 0.000000
v -0.006894 0.003646 0.008000
v -0.008125 0.002781 0.000000
v -0.007551 0.003272 0.008000
v -0.008597 0.002191 0.000000
v -0.008125 0.002781 0.008000
v -0.008949 0.001523 0.000000
v -0.008597 0.002191 0.008000
v -0.009169 0.000800 0.000000
v -0.008949 0.001523 0.008000
v -0.009169 0.000800 0.008000
v 0.002320 0.002037 0.008000
v 0.002469 0.001704 0.008000
v 0.002469 0.001704 0.000000
v 0.002300 0.002400 0.008000
v 0.002320 0.002037 0.000000
v 0.002411 0.002746 0.008000
v 0.002300 0.002400 0.000000
v 0.002639 0.003030 0.008000
v 0.002411 0.002746 0.000000
v 0.002639 0.003030 0.000000
v 0.008949 0.001523 0.000000
v 0.009169 0.000800 0.000000
v 0.009169 0.000800 0.008000
v 0.008597 0.002191 0.000000
v 0.008949 0.001523 0.008000
v 0.008125 0.002781 0.000000
v 0.008597 0.002191 0.008000
v 0.007551 0.003272 0.000000
v 0.008125 0.002781 0.008000
v 0.006894 0.003646 0.000000
v 0.007551 0.003272 0.008000
v 0.006180 0.003891 0.000000
v 0.006894 0.003646 0.008000
v 0.005431 0.003996 0.000000
v 0.006180 0.003891 0.008000
v 0.004677 0.003959 0.000000
v 0.005431 0.003996 0.008000
v 0.003943 0.003780 0.000000
v 0.004677 0.003959 0.008000
v 0.003255 0.003467 0.000000
v 0.003943 0.003780 0.008000
v 0.002639 0.003030 0.000000
v 0.003255 0.003467 0.008000
v 0.002639 0.003030 0.008000
v -0.009169 0.000800 0.000000
v -0.009169 0.000800 0.008000
v -0.009293 0.000483 0.008000
v -0.009293 0.000483 0.000000
v -0.009517 0.000225 0.008000
v -0.009517 0.000225 0.000000
v -0.009813 0.000058 0.008000
v -0.009813 0.000058 0.000000
v -0.010149 0.000000 0.008000
v -0.010149 0.000000 0.000000
v -0.010149 0.000000 0.008000
v -0.011707 0.000000 0.008000
v -0.011707 0.000000 0.000000
v -0.010149 0.000000 0.000000
v 0.010149 0.000000 0.000000
v 0.010149 0.000000 0.008000
v 0.009813 0.000058 0.008000
v 0.009813 0.000058 0.000000
v 0.009517 0.000225 0.008000
v 0.009517 0.000225 0.000000
v 0.009293 0.000483 0.008000
v 0.009293 0.000483 0.000000
v 0.009169 0.000800 0.008000
v 0.009169 0.000800 0.000000
v 0.010149 0.000000 0.000000
v 0.011707 0.000000 0.000000
v 0.011707 0.000000 0.008000
v 0.010149 0.000000 0.008000
v -0.002469 0.001704 0.008000
v -0.002469 0.001704 0.000000
v -0.002778 0.001132 0.000000
v -0.002778 0.001132 0.008000
v -0.002957 0.000505 0.000000
v -0.002957 0.000505 0.008000
v -0.002997 -0.000145 0.000000
v -0.002997 -0.000145 0.008000
v -0.002895 -0.000788 0.000000
v -0.002895 -0.000788 0.008000
v -0.002656 -0.001394 0.000000
v -0.002656 -0.001394 0.008000
v -0.002293 -0.001934 0.000000
v -0.002293 -0.001934 0.008000
v -0.001822 -0.002384 0.000000
v -0.001822 -0.002384 0.008000
v -0.001264 -0.002721 0.000000
v -0.001264 -0.002721 0.008000
v -0.000647 -0.002929 0.000000
v -0.000647 -0.002929 0.008000
v 0.000000 -0.003000 0.000000
v 0.000000 -0.003000 0.008000
v 0.000647 -0.002929 0.000000
v 0.000647 -0.002929 0.008000
v 0.001264 -0.002721 0.000000
v 0.001264 -0.002721 0.008000
v 0.001822 -0.002384 0.000000
v 0.001822 -0.002384 0.008000
v 0.002293 -0.001934 0.000000
v 0.002293 -0.001934 0.008000
v 0.002656 -0.001394 0.000000
v 0.002656 -0.001394 0.008000
v 0.002895 -0.000788 0.000000
v 0.002895 -0.000788 0.008000
v 0.002997 -0.000145 0.000000
v 0.002997 -0.000145 0.008000
v 0.002957 0.000505 0.000000
v 0.002957 0.000505 0.008000
v 0.002778 0.001132 0.000000
v 0.002778 0.001132 0.008000
v 0.002469 0.001704 0.000000
v 0.002469 0.001704 0.008000
vn 0.000 1.000 0.000
vn 0.000 1.000 0.000
vn 0.000 1.000 0.000
vn 0.000 1.000 0.000
vn 0.896 0.445 0.000
vn 0.716 0.698 0.000
vn 0.716 0.698 0.000
vn 0.989 0.148 0.000
vn 0.896 0.445 0.000
vn 0.987 -0.164 0.000
vn 0.989 0.148 0.000
vn 0.888 -0.459 0.000
vn 0.987 -0.164 0.000
vn 0.704 -0.710 0.000
vn 0.888 -0.459 0.000
vn 0.452 -0.892 0.000
vn 0.704 -0.710 0.000
vn 0.156 -0.988 0.000
vn 0.452 -0.892 0.000
vn -0.156 -0.988 0.000
vn 0.156 -0.988 0.000
vn -0.452 -0.892 0.000
vn -0.156 -0.988 0.000
vn -0.704 -0.710 0.000
vn -0.452 -0.892 0.000
vn -0.888 -0.459 0.000
vn -0.704 -0.710 0.000
vn -0.987 -0.164 0.000
vn -0.888 -0.459 0.000
vn -0.989 0.148 0.000
vn -0.987 -0.164 0.000
vn -0.896 0.445 0.000
vn -0.989 0.148 0.000
vn -0.716 0.698 0.000
vn -0.896 0.445 0.000
vn -0.716 0.698 0.000
vn 0.000 0.000 -1.000
vn 0.000 0.000 -1.000
vn 0.000 0.000 -1.000
vn 0.000 0.000 -1.000
vn 0.000 0.000 -1.000
vn 0.000 0.000 -1.000
vn 0.000 0.000 -1.000
vn 0.000 0.000 -1.000
vn 0.000 0.000 -1.000
vn 0.000 0.000 -1.000
vn 0.000 0.000 -1.000
vn 0.000 0.000 -1.000
vn 0.000 0.000 -1.000
vn 0.000 0.000 -1.000
vn 0.000 0.000 -1.000
vn 0.000 0.000 -1.000
vn 0.000 0.000 -1.000
vn 0.000 0.000 -1.000
vn 0.000 0.000 -1.000
vn 0.000 0.000 -1.000
vn 0.000 0.000 -1.000
vn 0.000 0.000 -1.000
vn 0.000 0.000 -1.000
vn 0.000 0.000 -1.000
vn 0.000 0.000 -1.000
vn 0.000 0.000 -1.000
vn 0.000 0.000 -1.000
vn 0.000 0.000 -1.000
vn 0.000 0.000 -1.000
vn 0.000 0.000 -1.000
vn 0.000 0.000 -1.000
vn 0.000 0.000 -1.000
vn 0.000 0.000 -1.000
vn 0.000 0.000 -1.000
vn 0.000 0.000 -1.000
vn 0.000 0.000 -1.000
vn 0.000 0.000 -1.000
vn 0.000 0.000 -1.000
vn 0.000 0.000 -1.000
vn 0.000 0.000 -1.000
vn 0.000 0.000 -1.000
vn 0.000 0.000 -1.000
vn 0.000 0.000 -1.000
vn 0.000 0.000 -1.000
vn 0.000 0.000 -1.000
vn 0.000 0.000 -1.000
vn 0.000 0.000 -1.000
vn 0.000 0.000 -1.000
vn 0.000 0.000 -1.000
vn 0.000 0.000 -1.000
vn 0.000 0.000 -1.000
vn 0.000 0.000 -1.000
vn 0.000 0.000 -1.000
vn 0.000 0.000 -1.000
vn 0.000 0.000 -1.000
vn 0.000 0.000 -1.000
vn 0.000 0.000 -1.000
vn 0.000 0.000 -1.000
vn 0.000 0.000 -1.000
vn 0.000 0.000 -1.000
vn 0.000 0.000 -1.000
vn 0.000 0.000 -1.000
vn 0.000 0.000 -1.000
vn 0.000 0.000 -1.000
vn 0.000 0.000 -1.000
vn 0.000 0.000 -1.000
vn 0.000 0.000 -1.000
vn 0.000 0.000 -1.000
vn 0.000 0.000 -1.000
vn 0.000 0.000 -1.000
vn 0.000 0.000 -1.000
vn 0.000 0.000 -1.000
vn 0.000 0.000 -1.000
vn 0.000 0.000 -1.000
vn 0.000 0.000 -1.000
vn 0.000 0.000 -1.000
vn 0.000 0.000 -1.000
vn 0.000 0.000 -1.000
vn 0.000 0.000 -1.000
vn 0.000 0.000 -1.000
vn 0.000 0.000 -1.000
vn 0.000 0.000 -1.000
vn 0.000 0.000 -1.000
vn 0.000 0.000 -1.000
vn 0.000 0.000 -1.000
vn 0.000 0.000 -1.000
vn 0.000 0.000 -1.000
vn 0.000 0.000 -1.000
vn 0.000 0.000 -1.000
vn 0.000 0.000 -1.000
vn 0.000 0.000 -1.000
vn 0.000 0.000 -1.000
vn 0.000 0.000 -1.000
vn 0.000 0.000 -1.000
vn 0.000 0.000 -1.000
vn 0.000 0.000 -1.000
vn 0.000 0.000 -1.000
vn 0.000 0.000 -1.000
vn 0.000 0.000 -1.000
vn 0.000 0.000 -1.000
vn 0.000 0.000 -1.000
vn 0.000 0.000 -1.000
vn 0.000 0.000 -1.000
vn 0.000 0.000 -1.000
vn 0.000 0.000 -1.000
vn 0.000 0.000 -1.000
vn 0.000 0.000 -1.000
vn 0.000 0.000 -1.000
vn 0.000 0.000 -1.000
vn 0.000 0.000 -1.000
vn 0.000 0.000 -1.000
vn 0.000 0.000 -1.000
vn 0.000 0.000 -1.000
vn 0.000 0.000 -1.000
vn 0.000 0.000 -1.000
vn 0.000 0.000 -1.000
vn 0.000 0.000 -1.000
vn 0.000 0.000 -1.000
vn 0.000 0.000 -1.000
vn 0.000 0.000 -1.000
vn 0.000 0.000 -1.000
vn 0.000 0.000 -1.000
vn 0.000 0.000 -1.000
vn 0.000 0.000 -1.000
vn 0.000 0.000 -1.000
vn 0.000 0.000 -1.000
vn 0.000 0.000 -1.000
vn 0.000 0.000 -1.000
vn 0.000 0.000 -1.000
vn 0.000 0.000 -1.000
vn 0.000 0.000 -1.000
vn 0.000 0.000 -1.000
vn 0.000 0.000 -1.000
vn 0.000 0.000 -1.000
vn 0.000 0.000 -1.000
vn 0.000 0.000 -1.000
vn 0.000 0.000 -1.000
vn 0.000 0.000 -1.000
vn 0.000 0.000 -1.000
vn 0.000 0.000 -1.000
vn 0.000 0.000 -1.000
vn 0.000 0.000 -1.000
vn 0.000 0.000 -1.000
vn 0.000 0.000 -1.000
vn 0.000 0.000 -1.000
vn 0.000 0.000 -1.000
vn 0.000 0.000 -1.000
vn 0.000 0.000 1.000
vn 0.000 0.000 1.000
vn 0.000 0.000 1.000
vn 0.000 0.000 1.000
vn 0.000 0.000 1.000
vn 0.000 0.000 1.000
vn 0.000 0.000 1.000
vn 0.000 0.000 1.000
vn 0.000 0.000 1.000
vn 0.000 0.000 1.000
vn 0.000 0.000 1.000
vn 0.000 0.000 1.000
vn 0.000 0.000 1.000
vn 0.000 0.000 1.000
vn 0.000 0.000 1.000
vn 0.000 0.000 1.000
vn 0.000 0.000 1.000
vn 0.000 0.000 1.000
vn 0.000 0.000 1.000
vn 0.000 0.000 1.000
vn 0.000 0.000 1.000
vn 0.000 0.000 1.000
vn 0.000 0.000 1.000
vn 0.000 0.000 1.000
vn 0.000 0.000 1.000
vn 0.000 0.000 1.000
vn 0.000 0.000 1.000
vn 0.000 0.000 1.000
vn 0.000 0.000 1.000
vn 0.000 0.000 1.000
vn 0.000 0.000 1.000
vn 0.000 0.000 1.000
vn 0.000 0.000 1.000
vn 0.000 0.000 1.000
vn 0.000 0.000 1.000
vn 0.000 0.000 1.000
vn 0.000 0.000 1.000
vn 0.000 0.000 1.000
vn 0.000 0.000 1.000
vn 0.000 0.000 1.000
vn 0.000 0.000 1.000
vn 0.000 0.000 1.000
vn 0.000 0.000 1.000
vn 0.000 0.000 1.000
vn 0.000 0.000 1.000
vn 0.000 0.000 1.000
vn 0.000 0.000 1.000
vn 0.000 0.000 1.000
vn 0.000 0.000 1.000
vn 0.000 0.000 1.000
vn 0.000 0.000 1.000
vn 0.000 0.000 1.000
vn 0.000 0.000 1.000
vn 0.000 0.000 1.000
vn 0.000 0.000 1.000
vn 0.000 0.000 1.000
vn 0.000 0.000 1.000
vn 0.000 0.000 1.000
vn 0.000 0.000 1.000
vn 0.000 0.000 1.000
vn 0.000 0.000 1.000
vn 0.000 0.000 1.000
vn 0.000 0.000 1.000
vn 0.000 0.000 1.000
vn 0.000 0.000 1.000
vn 0.000 0.000 1.000
vn 0.000 0.000 1.000
vn 0.000 0.000 1.000
vn 0.000 0.000 1.000
vn 0.000 0.000 1.000
vn 0.000 0.000 1.000
vn 0.000 0.000 1.000
vn 0.000 0.000 1.000
vn 0.000 0.000 1.000
vn 0.000 0.000 1.000
vn 0.000 0.000 1.000
vn 0.000 0.000 1.000
vn 0.000 0.000 1.000
vn 0.000 0.000 1.000
vn 0.000 0.000 1.000
vn 0.000 0.000 1.000
vn 0.000 0.000 1.000
vn 0.000 0.000 1.000
vn 0.000 0.000 1.000
vn 0.000 0.000 1.000
vn 0.000 0.000 1.000
vn 0.000 0.000 1.000
vn 0.000 0.000 1.000
vn 0.000 0.000 1.000
vn 0.000 0.000 1.000
vn 0.000 0.000 1.000
vn 0.000 0.000 1.000
vn 0.000 0.000 1.000
vn 0.000 0.000 1.000
vn 0.000 0.000 1.000
vn 0.000 0.000 1.000
vn 0.000 0.000 1.000
vn 0.000 0.000 1.000
vn 0.000 0.000 1.000
vn 0.000 0.000 1.000
vn 0.000 0.000 1.000
vn 0.000 0.000 1.000
vn 0.000 0.000 1.000
vn 0.000 0.000 1.000
vn 0.000 0.000 1.000
vn 0.000 0.000 1.000
vn 0.000 0.000 1.000
vn 0.000 0.000 1.000
vn 0.000 0.000 1.000
vn 0.000 0.000 1.000
vn 0.000 0.000 1.000
vn 0.000 0.000 1.000
vn 0.000 0.000 1.000
vn 0.000 0.000 1.000
vn 0.000 0.000 1.000
vn 0.000 0.000 1.000
vn 0.000 0.000 1.000
vn 0.000 0.000 1.000
vn 0.000 0.000 1.000
vn 0.000 0.000 1.000
vn 0.000 0.000 1.000
vn 0.000 0.000 1.000
vn 0.000 0.000 1.000
vn 0.000 0.000 1.000
vn 0.000 0.000 1.000
vn 0.000 0.000 1.000
vn 0.000 0.000 1.000
vn 0.000 0.000 1.000
vn 0.000 0.000 1.000
vn 0.000 0.000 1.000
vn 0.000 0.000 1.000
vn 0.000 0.000 1.000
vn 0.000 0.000 1.000
vn 0.000 0.000 1.000
vn 0.000 0.000 1.000
vn 0.000 0.000 1.000
vn 0.000 0.000 1.000
vn 0.000 0.000 1.000
vn 0.000 0.000 1.000
vn 0.000 0.000 1.000
vn 0.000 0.000 1.000
vn 0.000 0.000 1.000
vn 0.000 0.000 1.000
vn 0.000 0.000 1.000
vn 0.000 0.000 1.000
vn 0.000 0.000 1.000
vn 0.000 0.000 1.000
vn 0.000 -1.000 0.000
vn 0.000 -1.000 0.000
vn 0.325 -0.946 0.000
vn 0.325 -0.946 0.000
vn 0.615 -0.789 0.000
vn 0.615 -0.789 0.000
vn 0.838 -0.546 0.000
vn 0.838 -0.546 0.000
vn 0.970 -0.244 0.000
vn 0.970 -0.244 0.000
vn 0.996 0.085 0.000
vn 0.996 0.085 0.000
vn -0.996 0.085 0.000
vn -0.996 0.085 0.000
vn -0.981 0.194 0.000
vn -0.981 0.194 0.000
vn -0.954 0.301 0.000
vn -0.954 0.301 0.000
vn -0.915 0.404 0.000
vn -0.915 0.404 0.000
vn -0.865 0.502 0.000
vn -0.865 0.502 0.000
vn -0.805 0.594 0.000
vn -0.805 0.594 0.000
vn -0.735 0.678 0.000
vn -0.735 0.678 0.000
vn -0.656 0.755 0.000
vn -0.656 0.755 0.000
vn -0.569 0.822 0.000
vn -0.569 0.822 0.000
vn -0.475 0.880 0.000
vn -0.475 0.880 0.000
vn -0.376 0.927 0.000
vn -0.376 0.927 0.000
vn -0.272 0.962 0.000
vn -0.272 0.962 0.000
vn -0.164 0.986 0.000
vn -0.164 0.986 0.000
vn -0.055 0.998 0.000
vn -0.055 0.998 0.000
vn 0.055 0.998 0.000
vn 0.055 0.998 0.000
vn 0.164 0.986 0.000
vn 0.164 0.986 0.000
vn 0.272 0.962 0.000
vn 0.272 0.962 0.000
vn 0.376 0.927 0.000
vn 0.376 0.927 0.000
vn 0.475 0.880 0.000
vn 0.475 0.880 0.000
vn 0.569 0.822 0.000
vn 0.569 0.822 0.000
vn 0.656 0.755 0.000
vn 0.656 0.755 0.000
vn 0.735 0.678 0.000
vn 0.735 0.678 0.000
vn 0.805 0.594 0.000
vn 0.805 0.594 0.000
vn 0.865 0.502 0.000
vn 0.865 0.502 0.000
vn 0.915 0.404 0.000
vn 0.915 0.404 0.000
vn 0.954 0.301 0.000
vn 0.954 0.301 0.000
vn 0.981 0.194 0.000
vn 0.981 0.194 0.000
vn 0.996 0.085 0.000
vn 0.996 0.085 0.000
vn 0.000 -1.000 0.000
vn 0.000 -1.000 0.000
vn -0.325 -0.946 0.000
vn -0.325 -0.946 0.000
vn -0.615 -0.789 0.000
vn -0.615 -0.789 0.000
vn -0.838 -0.546 0.000
vn -0.838 -0.546 0.000
vn -0.970 -0.244 0.000
vn -0.970 -0.244 0.000
vn -0.996 0.085 0.000
vn -0.996 0.085 0.000
vn -0.526 0.850 0.000
vn -0.200 0.980 0.000
vn -0.200 0.980 0.000
vn -0.787 0.616 0.000
vn -0.526 0.850 0.000
vn -0.952 0.307 0.000
vn -0.787 0.616 0.000
vn -0.999 -0.041 0.000
vn -0.952 0.307 0.000
vn -0.924 -0.384 0.000
vn -0.999 -0.041 0.000
vn -0.734 -0.679 0.000
vn -0.924 -0.384 0.000
vn -0.455 -0.891 0.000
vn -0.734 -0.679 0.000
vn -0.455 -0.891 0.000
vn -0.347 -0.938 0.000
vn -0.455 -0.891 0.000
vn -0.455 -0.891 0.000
vn -0.234 -0.972 0.000
vn -0.347 -0.938 0.000
vn -0.118 -0.993 0.000
vn -0.234 -0.972 0.000
vn 0.000 -1.000 0.000
vn -0.118 -0.993 0.000
vn 0.118 -0.993 0.000
vn 0.000 -1.000 0.000
vn 0.234 -0.972 0.000
vn 0.118 -0.993 0.000
vn 0.347 -0.938 0.000
vn 0.234 -0.972 0.000
vn 0.455 -0.891 0.000
vn 0.347 -0.938 0.000
vn 0.455 -0.891 0.000
vn 0.734 -0.679 0.000
vn 0.455 -0.891 0.000
vn 0.455 -0.891 0.000
vn 0.924 -0.384 0.000
vn 0.734 -0.679 0.000
vn 0.999 -0.041 0.000
vn 0.924 -0.384 0.000
vn 0.952 0.307 0.000
vn 0.999 -0.041 0.000
vn 0.787 0.616 0.000
vn 0.952 0.307 0.000
vn 0.526 0.850 0.000
vn 0.787 0.616 0.000
vn 0.200 0.980 0.000
vn 0.526 0.850 0.000
vn 0.200 0.980 0.000
vn 0.200 0.980 0.000
vn 0.200 0.980 0.000
vn 0.338 0.941 0.000
vn 0.338 0.941 0.000
vn 0.469 0.883 0.000
vn 0.469 0.883 0.000
vn 0.591 0.807 0.000
vn 0.591 0.807 0.000
vn 0.700 0.714 0.000
vn 0.700 0.714 0.000
vn 0.378 0.926 0.000
vn 0.700 0.714 0.000
vn 0.700 0.714 0.000
vn 0.000 1.000 0.000
vn 0.378 0.926 0.000
vn -0.378 0.926 0.000
vn 0.000 1.000 0.000
vn -0.700 0.714 0.000
vn -0.378 0.926 0.000
vn -0.700 0.714 0.000
vn -0.700 0.714 0.000
vn -0.700 0.714 0.000
vn -0.591 0.807 0.000
vn -0.591 0.807 0.000
vn -0.469 0.883 0.000
vn -0.469 0.883 0.000
vn -0.338 0.941 0.000
vn -0.338 0.941 0.000
vn -0.200 0.980 0.000
vn -0.200 0.980 0.000
vn -0.972 0.236 0.000
vn -0.823 0.568 0.000
vn -0.823 0.568 0.000
vn -0.992 -0.127 0.000
vn -0.972 0.236 0.000
vn -0.881 -0.474 0.000
vn -0.992 -0.127 0.000
vn -0.653 -0.758 0.000
vn -0.881 -0.474 0.000
vn -0.653 -0.758 0.000
vn -0.499 -0.867 0.000
vn -0.653 -0.758 0.000
vn -0.653 -0.758 0.000
vn -0.327 -0.945 0.000
vn -0.499 -0.867 0.000
vn -0.143 -0.990 0.000
vn -0.327 -0.945 0.000
vn 0.045 -0.999 0.000
vn -0.143 -0.990 0.000
vn 0.232 -0.973 0.000
vn 0.045 -0.999 0.000
vn 0.411 -0.912 0.000
vn 0.232 -0.973 0.000
vn 0.575 -0.818 0.000
vn 0.411 -0.912 0.000
vn 0.719 -0.695 0.000
vn 0.575 -0.818 0.000
vn 0.837 -0.548 0.000
vn 0.719 -0.695 0.000
vn 0.925 -0.381 0.000
vn 0.837 -0.548 0.000
vn 0.980 -0.200 0.000
vn 0.925 -0.381 0.000
vn 0.980 -0.200 0.000
vn 0.972 0.236 0.000
vn 0.823 0.568 0.000
vn 0.823 0.568 0.000
vn 0.992 -0.127 0.000
vn 0.972 0.236 0.000
vn 0.881 -0.474 0.000
vn 0.992 -0.127 0.000
vn 0.653 -0.758 0.000
vn 0.881 -0.474 0.000
vn 0.653 -0.758 0.000
vn -0.925 -0.381 0.000
vn -0.980 -0.200 0.000
vn -0.980 -0.200 0.000
vn -0.837 -0.548 0.000
vn -0.925 -0.381 0.000
vn -0.719 -0.695 0.000
vn -0.837 -0.548 0.000
vn -0.575 -0.818 0.000
vn -0.719 -0.695 0.000
vn -0.411 -0.912 0.000
vn -0.575 -0.818 0.000
vn -0.232 -0.973 0.000
vn -0.411 -0.912 0.000
vn -0.045 -0.999 0.000
vn -0.232 -0.973 0.000
vn 0.143 -0.990 0.000
vn -0.045 -0.999 0.000
vn 0.327 -0.945 0.000
vn 0.143 -0.990 0.000
vn 0.499 -0.867 0.000
vn 0.327 -0.945 0.000
vn 0.653 -0.758 0.000
vn 0.499 -0.867 0.000
vn 0.653 -0.758 0.000
vn 0.980 -0.200 0.000
vn 0.980 -0.200 0.000
vn 0.856 -0.517 0.000
vn 0.856 -0.517 0.000
vn 0.632 -0.775 0.000
vn 0.632 -0.775 0.000
vn 0.336 -0.942 0.000
vn 0.336 -0.942 0.000
vn 0.000 -1.000 0.000
vn 0.000 -1.000 0.000
vn 0.000 -1.000 0.000
vn 0.000 -1.000 0.000
vn 0.000 -1.000 0.000
vn 0.000 -1.000 0.000
vn 0.000 -1.000 0.000
vn 0.000 -1.000 0.000
vn -0.336 -0.942 0.000
vn -0.336 -0.942 0.000
vn -0.632 -0.775 0.000
vn -0.632 -0.775 0.000
vn -0.856 -0.517 0.000
vn -0.856 -0.517 0.000
vn -0.980 -0.200 0.000
vn -0.980 -0.200 0.000
vn 0.000 -1.000 0.000
vn 0.000 -1.000 0.000
vn 0.000 -1.000 0.000
vn 0.000 -1.000 0.000
vn -0.823 0.568 0.000
vn -0.823 0.568 0.000
vn -0.926 0.377 0.000
vn -0.926 0.377 0.000
vn -0.986 0.168 0.000
vn -0.986 0.168 0.000
vn -0.999 -0.048 0.000
vn -0.999 -0.048 0.000
vn -0.965 -0.263 0.000
vn -0.965 -0.263 0.000
vn -0.885 -0.465 0.000
vn -0.885 -0.465 0.000
vn -0.764 -0.645 0.000
vn -0.764 -0.645 0.000
vn -0.607 -0.795 0.000
vn -0.607 -0.795 0.000
vn -0.421 -0.907 0.000
vn -0.421 -0.907 0.000
vn -0.216 -0.976 0.000
vn -0.216 -0.976 0.000
vn 0.000 -1.000 0.000
vn 0.000 -1.000 0.000
vn 0.216 -0.976 0.000
vn 0.216 -0.976 0.000
vn 0.421 -0.907 0.000
vn 0.421 -0.907 0.000
vn 0.607 -0.795 0.000
vn 0.607 -0.795 0.000
vn 0.764 -0.645 0.000
vn 0.764 -0.645 0.000
vn 0.885 -0.465 0.000
vn 0.885 -0.465 0.000
vn 0.965 -0.263 0.000
vn 0.965 -0.263 0.000
vn 0.999 -0.048 0.000
vn 0.999 -0.048 0.000
vn 0.986 0.168 0.000
vn 0.986 0.168 0.000
vn 0.926 0.377 0.000
vn 0.926 0.377 0.000
vn 0.823 0.568 0.000
vn 0.823 0.568 0.000
vt -0.0080 0.0000 0
vt 0.0000 0.0000 0
vt 0.0000 0.0023 0
vt -0.0080 0.0023 0
vt 9.8854 0.0080 0
vt 10.1980 0.0080 0
vt 10.1980 0.0000 0
vt 3.2897 0.0080 0
vt 9.8854 0.0000 0
vt 2.9772 0.0080 0
vt 3.2897 0.0000 0
vt 2.6647 0.0080 0
vt 2.9772 0.0000 0
vt 2.3521 0.0080 0
vt 2.6647 0.0000 0
vt 2.0396 0.0080 0
vt 2.3521 0.0000 0
vt 1.7271 0.0080 0
vt 2.0396 0.0000 0
vt 1.4145 0.0080 0
vt 1.7271 0.0000 0
vt 1.1020 0.0080 0
vt 1.4145 0.0000 0
vt 0.7895 0.0080 0
vt 1.1020 0.0000 0
vt 0.4769 0.0080 0
vt 0.7895 0.0000 0
vt 0.1644 0.0080 0
vt 0.4769 0.0000 0
vt 6.1351 0.0080 0
vt 0.1644 0.0000 0
vt 5.8225 0.0080 0
vt 6.1351 0.0000 0
vt 5.5100 0.0080 0
vt 5.8225 0.0000 0
vt 5.5100 0.0000 0
vt -0.0035 0.0123 0
vt -0.0022 0.0090 0
vt -0.0032 0.0087 0
vt -0.0021 0.0126 0
vt -0.0011 0.0092 0
vt -0.0007 0.0127 0
vt 0.0000 0.0093 0
vt -0.0048 0.0118 0
vt -0.0042 0.0082 0
vt 0.0007 0.0127 0
vt 0.0021 0.0126 0
vt 0.0011 0.0092 0
vt 0.0035 0.0123 0
vt 0.0022 0.0090 0
vt 0.0048 0.0118 0
vt 0.0032 0.0087 0
vt 0.0093 0.0005 0
vt 0.0101 0.0000 0
vt 0.0098 0.0001 0
vt -0.0101 0.0000 0
vt -0.0093 0.0005 0
vt -0.0095 0.0002 0
vt 0.0061 0.0112 0
vt 0.0042 0.0082 0
vt 0.0095 0.0002 0
vt 0.0092 0.0008 0
vt 0.0125 0.0005 0
vt 0.0117 0.0000 0
vt 0.0040 0.0064 0
vt 0.0047 0.0040 0
vt 0.0039 0.0038 0
vt -0.0092 0.0008 0
vt -0.0117 0.0000 0
vt 0.0123 0.0002 0
vt 0.0120 0.0001 0
vt 0.0014 0.0052 0
vt 0.0022 0.0057 0
vt 0.0033 0.0035 0
vt 0.0031 0.0061 0
vt -0.0040 0.0064 0
vt -0.0031 0.0061 0
vt -0.0039 0.0038 0
vt -0.0014 0.0052 0
vt -0.0026 0.0030 0
vt -0.0033 0.0035 0
vt -0.0120 0.0001 0
vt -0.0123 0.0002 0
vt -0.0098 0.0001 0
vt 0.0073 0.0105 0
vt 0.0045 0.0080 0
vt 0.0081 0.0028 0
vt 0.0076 0.0033 0
vt 0.0026 0.0030 0
vt 0.0007 0.0046 0
vt 0.0043 0.0065 0
vt -0.0043 0.0065 0
vt -0.0047 0.0040 0
vt -0.0054 0.0040 0
vt -0.0022 0.0057 0
vt -0.0125 0.0005 0
vt -0.0045 0.0067 0
vt -0.0062 0.0039 0
vt -0.0061 0.0112 0
vt -0.0045 0.0080 0
vt 0.0047 0.0074 0
vt 0.0047 0.0077 0
vt 0.0084 0.0096 0
vt 0.0047 0.0070 0
vt 0.0103 0.0076 0
vt 0.0045 0.0067 0
vt 0.0127 0.0011 0
vt 0.0127 0.0008 0
vt 0.0069 0.0036 0
vt 0.0062 0.0039 0
vt 0.0089 0.0015 0
vt 0.0086 0.0022 0
vt 0.0054 0.0040 0
vt -0.0007 0.0046 0
vt -0.0089 0.0015 0
vt -0.0081 0.0028 0
vt -0.0086 0.0022 0
vt -0.0076 0.0033 0
vt -0.0069 0.0036 0
vt -0.0122 0.0038 0
vt -0.0117 0.0051 0
vt -0.0127 0.0008 0
vt -0.0047 0.0074 0
vt -0.0094 0.0086 0
vt -0.0084 0.0096 0
vt -0.0047 0.0077 0
vt -0.0073 0.0105 0
vt 0.0094 0.0086 0
vt 0.0110 0.0064 0
vt 0.0125 0.0025 0
vt 0.0024 0.0027 0
vt 0.0004 0.0044 0
vt -0.0024 0.0027 0
vt -0.0125 0.0025 0
vt -0.0127 0.0011 0
vt -0.0047 0.0070 0
vt -0.0110 0.0064 0
vt -0.0103 0.0076 0
vt 0.0117 0.0051 0
vt 0.0122 0.0038 0
vt -0.0004 0.0044 0
vt -0.0030 -0.0001 0
vt -0.0030 0.0005 0
vt -0.0016 0.0003 0
vt 0.0025 0.0017 0
vt 0.0030 -0.0001 0
vt 0.0029 -0.0008 0
vt 0.0028 0.0011 0
vt 0.0007 0.0014 0
vt 0.0002 0.0016 0
vt 0.0014 0.0007 0
vt 0.0011 0.0011 0
vt 0.0023 -0.0019 0
vt 0.0011 -0.0011 0
vt 0.0014 -0.0007 0
vt -0.0016 -0.0002 0
vt 0.0030 0.0005 0
vt 0.0027 -0.0014 0
vt 0.0023 0.0020 0
vt 0.0023 0.0024 0
vt 0.0016 0.0003 0
vt 0.0016 -0.0002 0
vt -0.0007 0.0014 0
vt -0.0011 0.0011 0
vt -0.0002 0.0016 0
vt 0.0000 0.0044 0
vt -0.0023 0.0024 0
vt -0.0023 0.0020 0
vt -0.0028 0.0011 0
vt 0.0018 -0.0024 0
vt -0.0014 0.0007 0
vt -0.0025 0.0017 0
vt -0.0011 -0.0011 0
vt -0.0006 -0.0029 0
vt -0.0013 -0.0027 0
vt 0.0000 -0.0030 0
vt 0.0006 -0.0029 0
vt 0.0013 -0.0027 0
vt -0.0023 -0.0019 0
vt -0.0027 -0.0014 0
vt -0.0014 -0.0007 0
vt -0.0029 -0.0008 0
vt -0.0018 -0.0024 0
vt 0.0007 0.0127 0
vt 0.0000 0.0093 0
vt 0.0011 0.0092 0
vt -0.0035 0.0123 0
vt -0.0048 0.0118 0
vt -0.0032 0.0087 0
vt -0.0061 0.0112 0
vt -0.0042 0.0082 0
vt 0.0035 0.0123 0
vt 0.0022 0.0090 0
vt 0.0032 0.0087 0
vt 0.0021 0.0126 0
vt -0.0007 0.0127 0
vt -0.0021 0.0126 0
vt -0.0011 0.0092 0
vt -0.0022 0.0090 0
vt 0.0098 0.0001 0
vt 0.0092 0.0008 0
vt 0.0093 0.0005 0
vt 0.0048 0.0118 0
vt 0.0042 0.0082 0
vt -0.0101 0.0000 0
vt -0.0098 0.0001 0
vt -0.0095 0.0002 0
vt -0.0040 0.0064 0
vt -0.0047 0.0040 0
vt -0.0039 0.0038 0
vt 0.0101 0.0000 0
vt 0.0117 0.0000 0
vt 0.0095 0.0002 0
vt -0.0045 0.0067 0
vt -0.0069 0.0036 0
vt -0.0062 0.0039 0
vt -0.0093 0.0005 0
vt -0.0092 0.0008 0
vt -0.0125 0.0005 0
vt -0.0117 0.0000 0
vt -0.0014 0.0052 0
vt -0.0022 0.0057 0
vt -0.0033 0.0035 0
vt -0.0031 0.0061 0
vt 0.0040 0.0064 0
vt 0.0031 0.0061 0
vt 0.0039 0.0038 0
vt 0.0125 0.0005 0
vt 0.0120 0.0001 0
vt 0.0061 0.0112 0
vt 0.0045 0.0080 0
vt -0.0127 0.0011 0
vt -0.0127 0.0008 0
vt -0.0076 0.0033 0
vt -0.0081 0.0028 0
vt -0.0123 0.0002 0
vt -0.0026 0.0030 0
vt -0.0007 0.0046 0
vt -0.0043 0.0065 0
vt -0.0054 0.0040 0
vt 0.0047 0.0040 0
vt 0.0043 0.0065 0
vt 0.0022 0.0057 0
vt 0.0033 0.0035 0
vt 0.0014 0.0052 0
vt 0.0026 0.0030 0
vt -0.0073 0.0105 0
vt -0.0045 0.0080 0
vt -0.0125 0.0025 0
vt -0.0089 0.0015 0
vt -0.0086 0.0022 0
vt -0.0120 0.0001 0
vt 0.0089 0.0015 0
vt 0.0045 0.0067 0
vt 0.0076 0.0033 0
vt 0.0047 0.0074 0
vt 0.0094 0.0086 0
vt 0.0084 0.0096 0
vt -0.0047 0.0077 0
vt -0.0047 0.0074 0
vt -0.0084 0.0096 0
vt -0.0047 0.0070 0
vt -0.0103 0.0076 0
vt -0.0122 0.0038 0
vt -0.0117 0.0051 0
vt -0.0024 0.0027 0
vt -0.0004 0.0044 0
vt 0.0054 0.0040 0
vt 0.0007 0.0046 0
vt 0.0086 0.0022 0
vt 0.0069 0.0036 0
vt 0.0062 0.0039 0
vt 0.0127 0.0008 0
vt 0.0103 0.0076 0
vt 0.0047 0.0077 0
vt 0.0073 0.0105 0
vt -0.0094 0.0086 0
vt -0.0110 0.0064 0
vt 0.0024 0.0027 0
vt 0.0081 0.0028 0
vt 0.0127 0.0011 0
vt -0.0028 0.0011 0
vt -0.0030 -0.0001 0
vt -0.0029 -0.0008 0
vt 0.0004 0.0044 0
vt 0.0122 0.0038 0
vt 0.0117 0.0051 0
vt 0.0125 0.0025 0
vt 0.0016 0.0003 0
vt 0.0030 0.0005 0
vt 0.0028 0.0011 0
vt 0.0030 -0.0001 0
vt -0.0030 0.0005 0
vt -0.0002 0.0016 0
vt 0.0002 0.0016 0
vt 0.0000 0.0044 0
vt -0.0027 -0.0014 0
vt -0.0016 0.0003 0
vt -0.0014 0.0007 0
vt -0.0014 -0.0007 0
vt -0.0016 -0.0002 0
vt -0.0023 -0.0019 0
vt -0.0011 -0.0011 0
vt 0.0123 0.0002 0
vt 0.0047 0.0070 0
vt 0.0110 0.0064 0
vt 0.0023 0.0020 0
vt 0.0016 -0.0002 0
vt -0.0025 0.0017 0
vt -0.0023 0.0020 0
vt -0.0023 0.0024 0
vt -0.0007 0.0014 0
vt -0.0011 0.0011 0
vt 0.0007 0.0014 0
vt 0.0011 0.0011 0
vt 0.0023 0.0024 0
vt 0.0025 0.0017 0
vt -0.0018 -0.0024 0
vt 0.0014 0.0007 0
vt 0.0011 -0.0011 0
vt 0.0006 -0.0029 0
vt 0.0013 -0.0027 0
vt -0.0006 -0.0029 0
vt 0.0000 -0.0030 0
vt -0.0013 -0.0027 0
vt 0.0023 -0.0019 0
vt 0.0027 -0.0014 0
vt 0.0014 -0.0007 0
vt 0.0029 -0.0008 0
vt 0.0018 -0.0024 0
vt 4.7124 0.0000 0
vt 4.7124 -0.0080 0
vt 5.0436 -0.0080 0
vt 5.0436 0.0000 0
vt 5.3748 -0.0080 0
vt 5.3748 0.0000 0
vt 5.7060 -0.0080 0
vt 5.7060 0.0000 0
vt 6.0372 -0.0080 0
vt 6.0372 0.0000 0
vt 6.3684 -0.0080 0
vt 6.3684 0.0000 0
vt 1.6560 0.0080 0
vt 1.6560 0.0000 0
vt 1.7660 0.0000 0
vt 1.7660 0.0080 0
vt 1.8761 0.0000 0
vt 1.8761 0.0080 0
vt 1.9861 0.0000 0
vt 1.9861 0.0080 0
vt 2.0962 0.0000 0
vt 2.0962 0.0080 0
vt 2.2062 0.0000 0
vt 2.2062 0.0080 0
vt 2.3163 0.0000 0
vt 2.3163 0.0080 0
vt 2.4263 0.0000 0
vt 2.4263 0.0080 0
vt 2.5364 0.0000 0
vt 2.5364 0.0080 0
vt 2.6464 0.0000 0
vt 2.6464 0.0080 0
vt 2.7564 0.0000 0
vt 2.7564 0.0080 0
vt 2.8665 0.0000 0
vt 2.8665 0.0080 0
vt 2.9765 0.0000 0
vt 2.9765 0.0080 0
vt 3.0866 0.0000 0
vt 3.0866 0.0080 0
vt 3.1966 0.0000 0
vt 3.1966 0.0080 0
vt 3.3067 0.0000 0
vt 3.3067 0.0080 0
vt 3.4167 0.0000 0
vt 3.4167 0.0080 0
vt 3.5267 0.0000 0
vt 3.5267 0.0080 0
vt 3.6368 0.0000 0
vt 3.6368 0.0080 0
vt 3.7468 0.0000 0
vt 3.7468 0.0080 0
vt 3.8569 0.0000 0
vt 3.8569 0.0080 0
vt 3.9669 0.0000 0
vt 3.9669 0.0080 0
vt 4.0770 0.0000 0
vt 4.0770 0.0080 0
vt 4.1870 0.0000 0
vt 4.1870 0.0080 0
vt 4.2970 0.0000 0
vt 4.2970 0.0080 0
vt 4.4071 0.0000 0
vt 4.4071 0.0080 0
vt 4.5171 0.0000 0
vt 4.5171 0.0080 0
vt 4.6272 0.0000 0
vt 4.6272 0.0080 0
vt 0.0000 0.0080 0
vt 0.0000 0.0000 0
vt 0.3312 0.0000 0
vt 0.3312 0.0080 0
vt 0.6624 0.0000 0
vt 0.6624 0.0080 0
vt 0.9936 0.0000 0
vt 0.9936 0.0080 0
vt 1.3248 0.0000 0
vt 1.3248 0.0080 0
vt 1.6560 0.0000 0
vt 1.6560 0.0080 0
vt 5.7292 0.0080 0
vt 6.0818 0.0080 0
vt 6.0818 0.0000 0
vt 5.3766 0.0080 0
vt 5.7292 0.0000 0
vt 5.0240 0.0080 0
vt 5.3766 0.0000 0
vt 4.6713 0.0080 0
vt 5.0240 0.0000 0
vt 4.3187 0.0080 0
vt 4.6713 0.0000 0
vt 3.9661 0.0080 0
vt 4.3187 0.0000 0
vt 3.6135 0.0080 0
vt 3.9661 0.0000 0
vt 3.6135 0.0000 0
vt 3.4955 0.0080 0
vt 3.6135 0.0080 0
vt 3.6135 0.0000 0
vt 3.3775 0.0080 0
vt 3.4955 0.0000 0
vt 3.2596 0.0080 0
vt 3.3775 0.0000 0
vt 3.1416 0.0080 0
vt 3.2596 0.0000 0
vt 3.0236 0.0080 0
vt 3.1416 0.0000 0
vt 2.9057 0.0080 0
vt 3.0236 0.0000 0
vt 2.7877 0.0080 0
vt 2.9057 0.0000 0
vt 2.6697 0.0080 0
vt 2.7877 0.0000 0
vt 2.6697 0.0000 0
vt 2.3171 0.0080 0
vt 2.6697 0.0080 0
vt 2.6697 0.0000 0
vt 1.9645 0.0080 0
vt 2.3171 0.0000 0
vt 1.6119 0.0080 0
vt 1.9645 0.0000 0
vt 1.2592 0.0080 0
vt 1.6119 0.0000 0
vt 0.9066 0.0080 0
vt 1.2592 0.0000 0
vt 0.5540 0.0080 0
vt 0.9066 0.0000 0
vt 0.2014 0.0080 0
vt 0.5540 0.0000 0
vt 0.2014 0.0000 0
vt 3.3430 0.0080 0
vt 3.3430 0.0000 0
vt 3.4865 0.0000 0
vt 3.4865 0.0080 0
vt 3.6300 0.0000 0
vt 3.6300 0.0080 0
vt 3.7735 0.0000 0
vt 3.7735 0.0080 0
vt 3.9170 0.0000 0
vt 3.9170 0.0080 0
vt 6.6709 0.0080 0
vt 7.0586 0.0080 0
vt 7.0586 0.0000 0
vt 6.2832 0.0080 0
vt 6.6709 0.0000 0
vt 5.8955 0.0080 0
vt 6.2832 0.0000 0
vt 5.5078 0.0080 0
vt 5.8955 0.0000 0
vt 5.5078 0.0000 0
vt 2.3662 0.0080 0
vt 2.3662 0.0000 0
vt 2.5097 0.0000 0
vt 2.5097 0.0080 0
vt 2.6532 0.0000 0
vt 2.6532 0.0080 0
vt 2.7967 0.0000 0
vt 2.7967 0.0080 0
vt 2.9402 0.0000 0
vt 2.9402 0.0080 0
vt 4.9507 0.0000 0
vt 5.3167 0.0000 0
vt 5.3167 -0.0080 0
vt 4.5847 0.0000 0
vt 4.9507 -0.0080 0
vt 4.2188 0.0000 0
vt 4.5847 -0.0080 0
vt 3.8528 0.0000 0
vt 4.2188 -0.0080 0
vt 3.8528 -0.0080 0
vt 3.6637 0.0080 0
vt 3.8528 0.0080 0
vt 3.8528 0.0000 0
vt 3.4745 0.0080 0
vt 3.6637 0.0000 0
vt 3.2854 0.0080 0
vt 3.4745 0.0000 0
vt 3.0962 0.0080 0
vt 3.2854 0.0000 0
vt 2.9071 0.0080 0
vt 3.0962 0.0000 0
vt 2.7179 0.0080 0
vt 2.9071 0.0000 0
vt 2.5288 0.0080 0
vt 2.7179 0.0000 0
vt 2.3396 0.0080 0
vt 2.5288 0.0000 0
vt 2.1505 0.0080 0
vt 2.3396 0.0000 0
vt 1.9613 0.0080 0
vt 2.1505 0.0000 0
vt 1.7722 0.0080 0
vt 1.9613 0.0000 0
vt 1.7722 0.0000 0
vt 3.3799 0.0080 0
vt 3.7459 0.0080 0
vt 3.7459 0.0000 0
vt 3.0140 0.0080 0
vt 3.3799 0.0000 0
vt 2.6480 0.0080 0
vt 3.0140 0.0000 0
vt 2.2820 0.0080 0
vt 2.6480 0.0000 0
vt 2.2820 0.0000 0
vt 4.3219 0.0080 0
vt 4.5110 0.0080 0
vt 4.5110 0.0000 0
vt 4.1327 0.0080 0
vt 4.3219 0.0000 0
vt 3.9436 0.0080 0
vt 4.1327 0.0000 0
vt 3.7544 0.0080 0
vt 3.9436 0.0000 0
vt 3.5653 0.0080 0
vt 3.7544 0.0000 0
vt 3.3761 0.0080 0
vt 3.5653 0.0000 0
vt 3.1870 0.0080 0
vt 3.3761 0.0000 0
vt 2.9978 0.0080 0
vt 3.1870 0.0000 0
vt 2.8087 0.0080 0
vt 2.9978 0.0000 0
vt 2.6195 0.0080 0
vt 2.8087 0.0000 0
vt 2.4303 0.0080 0
vt 2.6195 0.0000 0
vt 2.4303 0.0000 0
vt 4.9137 0.0080 0
vt 4.9137 0.0000 0
vt 5.2561 0.0000 0
vt 5.2561 0.0080 0
vt 5.5985 0.0000 0
vt 5.5985 0.0080 0
vt 5.9408 0.0000 0
vt 5.9408 0.0080 0
vt 6.2832 0.0000 0
vt 6.2832 0.0080 0
vt 0.0000 -0.0009 0
vt 0.0000 -0.0025 0
vt 0.0080 -0.0025 0
vt 0.0080 -0.0009 0
vt 0.0000 0.0080 0
vt 0.0000 0.0000 0
vt 0.3424 0.0000 0
vt 0.3424 0.0080 0
vt 0.6847 0.0000 0
vt 0.6847 0.0080 0
vt 1.0271 0.0000 0
vt 1.0271 0.0080 0
vt 1.3694 0.0000 0
vt 1.3694 0.0080 0
vt 0.0080 0.0194 0
vt 0.0080 0.0210 0
vt 0.0000 0.0210 0
vt 0.0000 0.0194 0
vt 2.5373 0.0080 0
vt 2.5373 0.0000 0
vt 2.7548 0.0000 0
vt 2.7548 0.0080 0
vt 2.9723 0.0000 0
vt 2.9723 0.0080 0
vt 3.1898 0.0000 0
vt 3.1898 0.0080 0
vt 3.4073 0.0000 0
vt 3.4073 0.0080 0
vt 3.6249 0.0000 0
vt 3.6249 0.0080 0
vt 3.8424 0.0000 0
vt 3.8424 0.0080 0
vt 4.0599 0.0000 0
vt 4.0599 0.0080 0
vt 4.2774 0.0000 0
vt 4.2774 0.0080 0
vt 4.4949 0.0000 0
vt 4.4949 0.0080 0
vt 4.7124 0.0000 0
vt 4.7124 0.0080 0
vt 4.9299 0.0000 0
vt 4.9299 0.0080 0
vt 5.1474 0.0000 0
vt 5.1474 0.0080 0
vt 5.3649 0.0000 0
vt 5.3649 0.0080 0
vt 5.5824 0.0000 0
vt 5.5824 0.0080 0
vt 5.7999 0.0000 0
vt 5.7999 0.0080 0
vt 6.0174 0.0000 0
vt 6.0174 0.0080 0
vt 6.2349 0.0000 0
vt 6.2349 0.0080 0
vt 6.4524 0.0000 0
vt 6.4524 0.0080 0
vt 0.3868 0.0000 0
vt 0.3868 0.0080 0
vt 0.6043 0.0000 0
vt 0.6043 0.0080 0
f 338/338/338 339/339/339 340/340/340
f 333/333/333 331/331/331 332/332/332
f 335/335/335 334/334/334 333/333/333
f 337/337/337 336/336/336 335/335/335
f 339/339/339 338/338/338 337/337/337
f 341/341/341 340/340/340 339/339/339
f 336/336/336 337/337/337 338/338/338
f 334/334/334 335/335/335 336/336/336
f 331/331/331 333/333/333 334/334/334
f 340/340/340 341/341/341 342/342/342
f 385/385/385 384/384/384 383/383/383
f 383/383/383 382/382/382 381/381/381
f 387/387/387 386/386/386 385/385/385
f 379/379/379 378/378/378 377/377/377
f 377/377/377 376/376/376 375/375/375
f 343/343/343 345/345/345 346/346/346
f 346/346/346 347/347/347 348/348/348
f 348/348/348 349/349/349 350/350/350
f 350/350/350 351/351/351 352/352/352
f 352/352/352 353/353/353 354/354/354
f 354/354/354 355/355/355 356/356/356
f 356/356/356 357/357/357 358/358/358
f 358/358/358 359/359/359 360/360/360
f 360/360/360 361/361/361 362/362/362
f 362/362/362 363/363/363 364/364/364
f 364/364/364 365/365/365 366/366/366
f 366/366/366 367/367/367 368/368/368
f 368/368/368 369/369/369 370/370/370
f 370/370/370 371/371/371 372/372/372
f 372/372/372 373/373/373 374/374/374
f 374/374/374 375/375/375 376/376/376
f 376/376/376 377/377/377 378/378/378
f 378/378/378 379/379/379 380/380/380
f 380/380/380 381/381/381 382/382/382
f 382/382/382 383/383/383 384/384/384
f 384/384/384 385/385/385 386/386/386
f 386/386/386 387/387/387 388/388/388
f 388/388/388 389/389/389 390/390/390
f 390/390/390 391/391/391 392/392/392
f 392/392/392 393/393/393 394/394/394
f 394/394/394 395/395/395 396/396/396
f 396/396/396 397/397/397 398/398/398
f 375/375/375 374/374/374 373/373/373
f 373/373/373 372/372/372 371/371/371
f 371/371/371 370/370/370 369/369/369
f 369/369/369 368/368/368 367/367/367
f 367/367/367 366/366/366 365/365/365
f 365/365/365 364/364/364 363/363/363
f 363/363/363 362/362/362 361/361/361
f 361/361/361 360/360/360 359/359/359
f 359/359/359 358/358/358 357/357/357
f 357/357/357 356/356/356 355/355/355
f 355/355/355 354/354/354 353/353/353
f 353/353/353 352/352/352 351/351/351
f 351/351/351 350/350/350 349/349/349
f 349/349/349 348/348/348 347/347/347
f 347/347/347 346/346/346 345/345/345
f 345/345/345 343/343/343 344/344/344
f 389/389/389 388/388/388 387/387/387
f 391/391/391 390/390/390 389/389/389
f 393/393/393 392/392/392 391/391/391
f 397/397/397 396/396/396 395/395/395
f 381/381/381 380/380/380 379/379/379
f 395/395/395 394/394/394 393/393/393
f 154/154/154 178/178/178 177/177/177
f 179/179/179 173/173/173 183/183/183
f 182/182/182 181/181/181 180/180/180
f 173/173/173 175/175/175 183/183/183
f 156/156/156 182/182/182 142/142/142
f 141/141/141 171/171/171 144/144/144
f 181/181/181 182/182/182 156/156/156
f 181/181/181 179/179/179 180/180/180
f 178/178/178 154/154/154 170/170/170
f 176/176/176 154/154/154 177/177/177
f 92/92/92 94/94/94 98/98/98
f 132/132/132 150/150/150 166/166/166
f 173/173/173 176/176/176 174/174/174
f 144/144/144 172/172/172 168/168/168
f 141/141/141 165/165/165 163/163/163
f 158/158/158 162/162/162 161/161/161
f 132/132/132 160/160/160 159/159/159
f 176/176/176 173/173/173 154/154/154
f 175/175/175 173/173/173 174/174/174
f 144/144/144 169/169/169 172/172/172
f 141/141/141 168/168/168 167/167/167
f 165/165/165 166/166/166 150/150/150
f 141/141/141 164/164/164 171/171/171
f 154/154/154 153/153/153 170/170/170
f 158/158/158 151/151/151 132/132/132
f 123/123/123 125/125/125 126/126/126
f 158/158/158 159/159/159 145/145/145
f 144/144/144 143/143/143 169/169/169
f 168/168/168 141/141/141 144/144/144
f 133/133/133 141/141/141 167/167/167
f 166/166/166 165/165/165 141/141/141
f 164/164/164 141/141/141 163/163/163
f 153/153/153 155/155/155 158/158/158
f 162/162/162 158/158/158 155/155/155
f 151/151/151 158/158/158 161/161/161
f 132/132/132 152/152/152 149/149/149
f 106/106/106 108/108/108 63/63/63
f 160/160/160 132/132/132 131/131/131
f 159/159/159 158/158/158 132/132/132
f 146/146/146 148/148/148 157/157/157
f 142/142/142 144/144/144 156/156/156
f 97/97/97 121/121/121 136/136/136
f 155/155/155 153/153/153 154/154/154
f 152/152/152 132/132/132 151/151/151
f 150/150/150 132/132/132 149/149/149
f 106/106/106 110/110/110 91/91/91
f 102/102/102 85/85/85 103/103/103
f 148/148/148 146/146/146 145/145/145
f 147/147/147 145/145/145 146/146/146
f 144/144/144 142/142/142 143/143/143
f 136/136/136 138/138/138 123/123/123
f 69/69/69 83/83/83 96/96/96
f 131/131/131 90/90/90 89/89/89
f 106/106/106 139/139/139 140/140/140
f 101/101/101 128/128/128 105/105/105
f 126/126/126 127/127/127 100/100/100
f 137/137/137 136/136/136 121/121/121
f 97/97/97 135/135/135 134/134/134
f 96/96/96 118/118/118 116/116/116
f 133/133/133 114/114/114 141/141/141
f 72/72/72 74/74/74 89/89/89
f 179/179/179 181/181/181 173/173/173
f 139/139/139 106/106/106 104/104/104
f 130/130/130 106/106/106 140/140/140
f 104/104/104 129/129/129 139/139/139
f 85/85/85 102/102/102 86/86/86
f 99/99/99 100/100/100 127/127/127
f 124/124/124 123/123/123 138/138/138
f 138/138/138 136/136/136 137/137/137
f 97/97/97 122/122/122 135/135/135
f 120/120/120 97/97/97 134/134/134
f 97/97/97 119/119/119 118/118/118
f 96/96/96 117/117/117 115/115/115
f 114/114/114 133/133/133 80/80/80
f 95/95/95 78/78/78 77/77/77
f 91/91/91 113/113/113 66/66/66
f 90/90/90 131/131/131 132/132/132
f 63/63/63 62/62/62 111/111/111
f 106/106/106 88/88/88 109/109/109
f 107/107/107 106/106/106 130/130/130
f 104/104/104 105/105/105 129/129/129
f 101/101/101 103/103/103 128/128/128
f 44/44/44 45/45/45 99/99/99
f 127/127/127 126/126/126 125/125/125
f 125/125/125 123/123/123 124/124/124
f 122/122/122 97/97/97 96/96/96
f 121/121/121 97/97/97 120/120/120
f 97/97/97 98/98/98 119/119/119
f 118/118/118 96/96/96 97/97/97
f 117/117/117 96/96/96 116/116/116
f 68/68/68 96/96/96 115/115/115
f 80/80/80 79/79/79 114/114/114
f 76/76/76 78/78/78 93/93/93
f 113/113/113 91/91/91 110/110/110
f 73/73/73 67/67/67 74/74/74
f 54/54/54 53/53/53 62/62/62
f 112/112/112 63/63/63 111/111/111
f 63/63/63 88/88/88 106/106/106
f 110/110/110 106/106/106 109/109/109
f 108/108/108 106/106/106 107/107/107
f 105/105/105 104/104/104 101/101/101
f 103/103/103 101/101/101 102/102/102
f 59/59/59 86/86/86 60/60/60
f 100/100/100 99/99/99 45/45/45
f 98/98/98 97/97/97 92/92/92
f 68/68/68 69/69/69 96/96/96
f 79/79/79 81/81/81 95/95/95
f 78/78/78 95/95/95 81/81/81
f 76/76/76 93/93/93 92/92/92
f 94/94/94 92/92/92 93/93/93
f 66/66/66 65/65/65 91/91/91
f 72/72/72 89/89/89 90/90/90
f 63/63/63 71/71/71 64/64/64
f 88/88/88 63/63/63 87/87/87
f 86/86/86 59/59/59 85/85/85
f 47/47/47 50/50/50 48/48/48
f 56/56/56 58/58/58 84/84/84
f 83/83/83 69/69/69 82/82/82
f 81/81/81 79/79/79 80/80/80
f 78/78/78 76/76/76 77/77/77
f 65/65/65 67/67/67 75/75/75
f 67/67/67 73/73/73 75/75/75
f 74/74/74 72/72/72 73/73/73
f 71/71/71 63/63/63 70/70/70
f 62/62/62 64/64/64 54/54/54
f 51/51/51 60/60/60 52/52/52
f 43/43/43 42/42/42 46/46/46
f 57/57/57 56/56/56 68/68/68
f 69/69/69 68/68/68 56/56/56
f 67/67/67 65/65/65 66/66/66
f 64/64/64 62/62/62 63/63/63
f 53/53/53 55/55/55 61/61/61
f 60/60/60 51/51/51 59/59/59
f 49/49/49 52/52/52 50/50/50
f 46/46/46 48/48/48 43/43/43
f 37/37/37 39/39/39 44/44/44
f 58/58/58 56/56/56 57/57/57
f 55/55/55 53/53/53 54/54/54
f 52/52/52 49/49/49 51/51/51
f 50/50/50 47/47/47 49/49/49
f 48/48/48 46/46/46 47/47/47
f 42/42/42 41/41/41 40/40/40
f 40/40/40 38/38/38 37/37/37
f 45/45/45 44/44/44 39/39/39
f 41/41/41 42/42/42 43/43/43
f 38/38/38 40/40/40 41/41/41
f 39/39/39 37/37/37 38/38/38
f 145/145/145 147/147/147 158/158/158
f 63/63/63 112/112/112 87/87/87
f 399/399/399 401/401/401 402/402/402
f 402/402/402 403/403/403 404/404/404
f 404/404/404 405/405/405 406/406/406
f 406/406/406 407/407/407 408/408/408
f 408/408/408 409/409/409 410/410/410
f 409/409/409 408/408/408 407/407/407
f 407/407/407 406/406/406 405/405/405
f 405/405/405 404/404/404 403/403/403
f 403/403/403 402/402/402 401/401/401
f 401/401/401 399/399/399 400/400/400
f 1/1/1 3/3/3 4/4/4
f 3/3/3 1/1/1 2/2/2
f 13/13/13 12/12/12 10/10/10
f 11/11/11 10/10/10 8/8/8
f 9/9/9 8/8/8 5/5/5
f 7/7/7 5/5/5 6/6/6
f 15/15/15 14/14/14 12/12/12
f 17/17/17 16/16/16 14/14/14
f 19/19/19 18/18/18 16/16/16
f 21/21/21 20/20/20 18/18/18
f 23/23/23 22/22/22 20/20/20
f 25/25/25 24/24/24 22/22/22
f 27/27/27 26/26/26 24/24/24
f 29/29/29 28/28/28 26/26/26
f 5/5/5 7/7/7 9/9/9
f 8/8/8 9/9/9 11/11/11
f 10/10/10 11/11/11 13/13/13
f 12/12/12 13/13/13 15/15/15
f 14/14/14 15/15/15 17/17/17
f 16/16/16 17/17/17 19/19/19
f 18/18/18 19/19/19 21/21/21
f 20/20/20 21/21/21 23/23/23
f 22/22/22 23/23/23 25/25/25
f 24/24/24 25/25/25 27/27/27
f 26/26/26 27/27/27 29/29/29
f 28/28/28 29/29/29 31/31/31
f 30/30/30 31/31/31 33/33/33
f 32/32/32 33/33/33 35/35/35
f 34/34/34 35/35/35 36/36/36
f 35/35/35 34/34/34 32/32/32
f 33/33/33 32/32/32 30/30/30
f 31/31/31 30/30/30 28/28/28
f 418/418/418 419/419/419 421/421/421
f 420/420/420 421/421/421 423/423/423
f 422/422/422 423/423/423 425/425/425
f 424/424/424 425/425/425 426/426/426
f 425/425/425 424/424/424 422/422/422
f 423/423/423 422/422/422 420/420/420
f 414/414/414 415/415/415 417/417/417
f 421/421/421 420/420/420 418/418/418
f 419/419/419 418/418/418 416/416/416
f 417/417/417 416/416/416 414/414/414
f 415/415/415 414/414/414 411/411/411
f 413/413/413 411/411/411 412/412/412
f 416/416/416 417/417/417 419/419/419
f 411/411/411 413/413/413 415/415/415
f 429/429/429 427/427/427 428/428/428
f 443/443/443 442/442/442 440/440/440
f 441/441/441 440/440/440 438/438/438
f 439/439/439 438/438/438 436/436/436
f 440/440/440 441/441/441 443/443/443
f 438/438/438 439/439/439 441/441/441
f 436/436/436 437/437/437 439/439/439
f 434/434/434 435/435/435 437/437/437
f 432/432/432 433/433/433 435/435/435
f 430/430/430 431/431/431 433/433/433
f 427/427/427 429/429/429 431/431/431
f 437/437/437 436/436/436 434/434/434
f 435/435/435 434/434/434 432/432/432
f 433/433/433 432/432/432 430/430/430
f 431/431/431 430/430/430 427/427/427
f 442/442/442 443/443/443 444/444/444
f 458/458/458 459/459/459 460/460/460
f 459/459/459 458/458/458 456/456/456
f 445/445/445 447/447/447 449/449/449
f 448/448/448 449/449/449 451/451/451
f 450/450/450 451/451/451 453/453/453
f 452/452/452 453/453/453 455/455/455
f 454/454/454 455/455/455 457/457/457
f 447/447/447 445/445/445 446/446/446
f 449/449/449 448/448/448 445/445/445
f 451/451/451 450/450/450 448/448/448
f 453/453/453 452/452/452 450/450/450
f 455/455/455 454/454/454 452/452/452
f 457/457/457 456/456/456 454/454/454
f 456/456/456 457/457/457 459/459/459
f 464/464/464 465/465/465 466/466/466
f 466/466/466 467/467/467 468/468/468
f 468/468/468 469/469/469 470/470/470
f 469/469/469 468/468/468 467/467/467
f 467/467/467 466/466/466 465/465/465
f 465/465/465 464/464/464 463/463/463
f 463/463/463 461/461/461 462/462/462
f 461/461/461 463/463/463 464/464/464
f 478/478/478 479/479/479 480/480/480
f 474/474/474 475/475/475 477/477/477
f 476/476/476 477/477/477 479/479/479
f 473/473/473 471/471/471 472/472/472
f 475/475/475 474/474/474 471/471/471
f 477/477/477 476/476/476 474/474/474
f 479/479/479 478/478/478 476/476/476
f 471/471/471 473/473/473 475/475/475
f 484/484/484 485/485/485 486/486/486
f 486/486/486 487/487/487 488/488/488
f 481/481/481 483/483/483 484/484/484
f 488/488/488 489/489/489 490/490/490
f 489/489/489 488/488/488 487/487/487
f 487/487/487 486/486/486 485/485/485
f 485/485/485 484/484/484 483/483/483
f 483/483/483 481/481/481 482/482/482
f 497/497/497 496/496/496 494/494/494
f 494/494/494 495/495/495 497/497/497
f 496/496/496 497/497/497 499/499/499
f 498/498/498 499/499/499 500/500/500
f 493/493/493 491/491/491 492/492/492
f 495/495/495 494/494/494 491/491/491
f 491/491/491 493/493/493 495/495/495
f 499/499/499 498/498/498 496/496/496
f 506/506/506 507/507/507 509/509/509
f 504/504/504 505/505/505 507/507/507
f 517/517/517 516/516/516 514/514/514
f 508/508/508 509/509/509 511/511/511
f 503/503/503 501/501/501 502/502/502
f 505/505/505 504/504/504 501/501/501
f 507/507/507 506/506/506 504/504/504
f 509/509/509 508/508/508 506/506/506
f 511/511/511 510/510/510 508/508/508
f 513/513/513 512/512/512 510/510/510
f 515/515/515 514/514/514 512/512/512
f 510/510/510 511/511/511 513/513/513
f 519/519/519 518/518/518 516/516/516
f 521/521/521 520/520/520 518/518/518
f 523/523/523 522/522/522 520/520/520
f 522/522/522 523/523/523 524/524/524
f 520/520/520 521/521/521 523/523/523
f 518/518/518 519/519/519 521/521/521
f 516/516/516 517/517/517 519/519/519
f 514/514/514 515/515/515 517/517/517
f 512/512/512 513/513/513 515/515/515
f 501/501/501 503/503/503 505/505/505
f 530/530/530 531/531/531 533/533/533
f 532/532/532 533/533/533 534/534/534
f 528/528/528 529/529/529 531/531/531
f 533/533/533 532/532/532 530/530/530
f 531/531/531 530/530/530 528/528/528
f 529/529/529 528/528/528 525/525/525
f 525/525/525 527/527/527 529/529/529
f 527/527/527 525/525/525 526/526/526
f 537/537/537 535/535/535 536/536/536
f 541/541/541 540/540/540 538/538/538
f 543/543/543 542/542/542 540/540/540
f 545/545/545 544/544/544 542/542/542
f 535/535/535 537/537/537 539/539/539
f 538/538/538 539/539/539 541/541/541
f 540/540/540 541/541/541 543/543/543
f 542/542/542 543/543/543 545/545/545
f 544/544/544 545/545/545 547/547/547
f 546/546/546 547/547/547 549/549/549
f 548/548/548 549/549/549 551/551/551
f 550/550/550 551/551/551 553/553/553
f 552/552/552 553/553/553 555/555/555
f 554/554/554 555/555/555 557/557/557
f 556/556/556 557/557/557 558/558/558
f 557/557/557 556/556/556 554/554/554
f 555/555/555 554/554/554 552/552/552
f 553/553/553 552/552/552 550/550/550
f 551/551/551 550/550/550 548/548/548
f 549/549/549 548/548/548 546/546/546
f 547/547/547 546/546/546 544/544/544
f 539/539/539 538/538/538 535/535/535
f 566/566/566 567/567/567 568/568/568
f 559/559/559 561/561/561 562/562/562
f 562/562/562 563/563/563 564/564/564
f 564/564/564 565/565/565 566/566/566
f 561/561/561 559/559/559 560/560/560
f 567/567/567 566/566/566 565/565/565
f 565/565/565 564/564/564 563/563/563
f 563/563/563 562/562/562 561/561/561
f 569/569/569 571/571/571 572/572/572
f 571/571/571 569/569/569 570/570/570
f 209/209/209 239/239/239 240/240/240
f 225/225/225 241/241/241 242/242/242
f 227/227/227 243/243/243 244/244/244
f 244/244/244 245/245/245 246/246/246
f 201/201/201 212/212/212 228/228/228
f 203/203/203 204/204/204 230/230/230
f 248/248/248 190/190/190 247/247/247
f 232/232/232 214/214/214 249/249/249
f 219/219/219 234/234/234 214/214/214
f 251/251/251 219/219/219 250/250/250
f 220/220/220 236/236/236 252/252/252
f 222/222/222 210/210/210 223/223/223
f 240/240/240 239/239/239 216/216/216
f 243/243/243 227/227/227 226/226/226
f 245/245/245 244/244/244 243/243/243
f 201/201/201 228/228/228 253/253/253
f 255/255/255 228/228/228 254/254/254
f 258/258/258 256/256/256 257/257/257
f 190/190/190 248/248/248 191/191/191
f 247/247/247 259/259/259 248/248/248
f 261/261/261 260/260/260 259/259/259
f 263/263/263 262/262/262 260/260/260
f 249/249/249 214/214/214 264/264/264
f 265/265/265 214/214/214 262/262/262
f 219/219/219 251/251/251 235/235/235
f 205/205/205 217/217/217 218/218/218
f 238/238/238 266/266/266 267/267/267
f 209/209/209 208/208/208 239/239/239
f 268/268/268 242/242/242 241/241/241
f 246/246/246 245/245/245 269/269/269
f 253/253/253 228/228/228 270/270/270
f 255/255/255 254/254/254 271/271/271
f 272/272/272 254/254/254 242/242/242
f 273/273/273 254/254/254 228/228/228
f 257/257/257 256/256/256 274/274/274
f 276/276/276 275/275/275 258/258/258
f 259/259/259 247/247/247 261/261/261
f 260/260/260 261/261/261 277/277/277
f 262/262/262 263/263/263 278/278/278
f 214/214/214 265/265/265 264/264/264
f 219/219/219 218/218/218 250/250/250
f 193/193/193 195/195/195 186/186/186
f 225/225/225 227/227/227 241/241/241
f 269/269/269 279/279/279 246/246/246
f 270/270/270 228/228/228 280/280/280
f 254/254/254 272/272/272 271/271/271
f 254/254/254 273/273/273 281/281/281
f 284/284/284 282/282/282 283/283/283
f 275/275/275 276/276/276 231/231/231
f 260/260/260 277/277/277 263/263/263
f 214/214/214 233/233/233 219/219/219
f 266/266/266 238/238/238 237/237/237
f 279/279/279 269/269/269 285/285/285
f 228/228/228 255/255/255 280/280/280
f 287/287/287 254/254/254 286/286/286
f 254/254/254 281/281/281 288/288/288
f 229/229/229 228/228/228 212/212/212
f 289/289/289 292/292/292 290/290/290
f 283/283/283 282/282/282 293/293/293
f 230/230/230 231/231/231 276/276/276
f 214/214/214 216/216/216 239/239/239
f 296/296/296 294/294/294 295/295/295
f 299/299/299 297/297/297 298/298/298
f 210/210/210 222/222/222 224/224/224
f 300/300/300 302/302/302 303/303/303
f 228/228/228 229/229/229 304/304/304
f 254/254/254 288/288/288 286/286/286
f 274/274/274 305/305/305 306/306/306
f 307/307/307 285/285/285 289/289/289
f 292/292/292 289/289/289 308/308/308
f 282/282/282 297/297/297 309/309/309
f 310/310/310 297/297/297 267/267/267
f 311/311/311 267/267/267 266/266/266
f 262/262/262 278/278/278 265/265/265
f 294/294/294 267/267/267 312/312/312
f 313/313/313 267/267/267 299/299/299
f 297/297/297 301/301/301 298/298/298
f 302/302/302 300/300/300 297/297/297
f 227/227/227 225/225/225 226/226/226
f 254/254/254 287/287/287 305/305/305
f 306/306/306 305/305/305 287/287/287
f 285/285/285 307/307/307 316/316/316
f 289/289/289 291/291/291 317/317/317
f 297/297/297 310/310/310 309/309/309
f 256/256/256 258/258/258 275/275/275
f 267/267/267 313/313/313 312/312/312
f 303/303/303 302/302/302 318/318/318
f 285/285/285 315/315/315 319/319/319
f 295/295/295 285/285/285 296/296/296
f 305/305/305 274/274/274 256/256/256
f 289/289/289 317/317/317 307/307/307
f 267/267/267 311/311/311 310/310/310
f 297/297/297 299/299/299 267/267/267
f 285/285/285 295/295/295 314/314/314
f 285/285/285 316/316/316 279/279/279
f 322/322/322 320/320/320 321/321/321
f 324/324/324 303/303/303 323/323/323
f 325/325/325 303/303/303 318/318/318
f 294/294/294 296/296/296 267/267/267
f 242/242/242 268/268/268 272/272/272
f 321/321/321 320/320/320 324/324/324
f 303/303/303 325/325/325 323/323/323
f 328/328/328 326/326/326 327/327/327
f 328/328/328 329/329/329 308/308/308
f 285/285/285 319/319/319 289/289/289
f 303/303/303 324/324/324 320/320/320
f 326/326/326 320/320/320 330/330/330
f 329/329/329 328/328/328 327/327/327
f 320/320/320 322/322/322 330/330/330
f 308/308/308 329/329/329 292/292/292
f 326/326/326 328/328/328 320/320/320
f 282/282/282 284/284/284 297/297/297
f 208/208/208 210/210/210 224/224/224
f 223/223/223 221/221/221 222/222/222
f 220/220/220 218/218/218 219/219/219
f 205/205/205 207/207/207 217/217/217
f 216/216/216 214/214/214 215/215/215
f 197/197/197 199/199/199 198/198/198
f 192/192/192 194/194/194 203/203/203
f 200/200/200 202/202/202 213/213/213
f 212/212/212 201/201/201 211/211/211
f 210/210/210 208/208/208 209/209/209
f 207/207/207 205/205/205 206/206/206
f 187/187/187 189/189/189 199/199/199
f 196/196/196 198/198/198 185/185/185
f 195/195/195 193/193/193 192/192/192
f 204/204/204 203/203/203 194/194/194
f 202/202/202 200/200/200 201/201/201
f 221/221/221 237/237/237 238/238/238
f 236/236/236 220/220/220 219/219/219
f 218/218/218 220/220/220 205/205/205
f 234/234/234 219/219/219 235/235/235
f 215/215/215 214/214/214 234/234/234
f 233/233/233 214/214/214 232/232/232
f 185/185/185 184/184/184 196/196/196
f 231/231/231 230/230/230 204/204/204
f 301/301/301 297/297/297 300/300/300
f 201/201/201 200/200/200 211/211/211
f 194/194/194 192/192/192 193/193/193
f 188/188/188 191/191/191 189/189/189
f 189/189/189 187/187/187 188/188/188
f 186/186/186 184/184/184 185/185/185
f 199/199/199 197/197/197 187/187/187
f 198/198/198 196/196/196 197/197/197
f 291/291/291 289/289/289 290/290/290
f 184/184/184 186/186/186 195/195/195
f 221/221/221 223/223/223 237/237/237
f 191/191/191 188/188/188 190/190/190
f 315/315/315 285/285/285 314/314/314
f 575/575/575 573/573/573 574/574/574
f 577/577/577 576/576/576 575/575/575
f 579/579/579 578/578/578 577/577/577
f 581/581/581 580/580/580 579/579/579
f 580/580/580 581/581/581 582/582/582
f 578/578/578 579/579/579 580/580/580
f 576/576/576 577/577/577 578/578/578
f 573/573/573 575/575/575 576/576/576
f 583/583/583 585/585/585 586/586/586
f 585/585/585 583/583/583 584/584/584
f 589/589/589 587/587/587 588/588/588
f 591/591/591 590/590/590 589/589/589
f 593/593/593 592/592/592 591/591/591
f 595/595/595 594/594/594 593/593/593
f 597/597/597 596/596/596 595/595/595
f 599/599/599 598/598/598 597/597/597
f 601/601/601 600/600/600 599/599/599
f 603/603/603 602/602/602 601/601/601
f 605/605/605 604/604/604 603/603/603
f 607/607/607 606/606/606 605/605/605
f 609/609/609 608/608/608 607/607/607
f 611/611/611 610/610/610 609/609/609
f 613/613/613 612/612/612 611/611/611
f 615/615/615 614/614/614 613/613/613
f 617/617/617 616/616/616 615/615/615
f 619/619/619 618/618/618 617/617/617
f 621/621/621 620/620/620 619/619/619
f 623/623/623 622/622/622 621/621/621
f 625/625/625 624/624/624 623/623/623
f 627/627/627 626/626/626 625/625/625
f 626/626/626 627/627/627 628/628/628
f 624/624/624 625/625/625 626/626/626
f 622/622/622 623/623/623 624/624/624
f 620/620/620 621/621/621 622/622/622
f 618/618/618 619/619/619 620/620/620
f 616/616/616 617/617/617 618/618/618
f 614/614/614 615/615/615 616/616/616
f 612/612/612 613/613/613 614/614/614
f 610/610/610 611/611/611 612/612/612
f 608/608/608 609/609/609 610/610/610
f 606/606/606 607/607/607 608/608/608
f 604/604/604 605/605/605 606/606/606
f 602/602/602 603/603/603 604/604/604
f 600/600/600 601/601/601 602/602/602
f 598/598/598 599/599/599 600/600/600
f 596/596/596 597/597/597 598/598/598
f 594/594/594 595/595/595 596/596/596
f 592/592/592 593/593/593 594/594/594
f 590/590/590 591/591/591 592/592/592
f 587/587/587 589/589/589 590/590/590
