# Wavefront .OBJ file for tesselated shape: graound-1 path: C:\Users\Amin\Documents\soro_chrono_amin\PyChrono\intestine controls\CadBased\graound.SLDPRT

g body_1
v -0.250000 1.750000 0.010000
v -0.250000 1.750000 0.000000
v -0.250000 -0.250000 0.000000
v -0.250000 -0.250000 0.010000
v -0.250000 -0.250000 0.010000
v -0.250000 -0.250000 0.000000
v 1.750000 -0.250000 0.000000
v 1.750000 -0.250000 0.010000
v 1.750000 -0.250000 0.010000
v 1.750000 -0.250000 0.000000
v 1.750000 1.750000 0.000000
v 1.750000 1.750000 0.010000
v 1.750000 1.750000 0.010000
v 1.750000 1.750000 0.000000
v -0.250000 1.750000 0.000000
v -0.250000 1.750000 0.010000
v 1.750000 1.750000 0.010000
v -0.250000 1.750000 0.010000
v -0.250000 -0.250000 0.010000
v 1.750000 -0.250000 0.010000
v 1.750000 1.750000 0.000000
v 1.750000 -0.250000 0.000000
v -0.250000 -0.250000 0.000000
v -0.250000 1.750000 0.000000
vn -1.000 0.000 0.000
vn -1.000 0.000 0.000
vn -1.000 0.000 0.000
vn -1.000 0.000 0.000
vn 0.000 -1.000 0.000
vn 0.000 -1.000 0.000
vn 0.000 -1.000 0.000
vn 0.000 -1.000 0.000
vn 1.000 0.000 0.000
vn 1.000 0.000 0.000
vn 1.000 0.000 0.000
vn 1.000 0.000 0.000
vn 0.000 1.000 0.000
vn 0.000 1.000 0.000
vn 0.000 1.000 0.000
vn 0.000 1.000 0.000
vn 0.000 0.000 1.000
vn 0.000 0.000 1.000
vn 0.000 0.000 1.000
vn 0.000 0.000 1.000
vn 0.000 0.000 -1.000
vn 0.000 0.000 -1.000
vn 0.000 0.000 -1.000
vn 0.000 0.000 -1.000
vt 0.0000 0.0000 0
vt 0.0000 -0.0100 0
vt -2.0000 -0.0100 0
vt -2.0000 0.0000 0
vt 0.0000 0.0000 0
vt 0.0000 -0.0100 0
vt -2.0000 -0.0100 0
vt -2.0000 0.0000 0
vt 0.0000 -2.0000 0
vt -0.0100 -2.0000 0
vt -0.0100 0.0000 0
vt 0.0000 0.0000 0
vt 0.0000 2.0000 0
vt 0.0100 2.0000 0
vt 0.0100 0.0000 0
vt 0.0000 0.0000 0
vt 1.7500 1.7500 0
vt -0.2500 1.7500 0
vt -0.2500 -0.2500 0
vt 1.7500 -0.2500 0
vt 1.7500 1.7500 0
vt 1.7500 -0.2500 0
vt -0.2500 -0.2500 0
vt -0.2500 1.7500 0
f 1/1/1 3/3/3 4/4/4
f 3/3/3 1/1/1 2/2/2
f 5/5/5 7/7/7 8/8/8
f 7/7/7 5/5/5 6/6/6
f 9/9/9 11/11/11 12/12/12
f 11/11/11 9/9/9 10/10/10
f 15/15/15 13/13/13 14/14/14
f 13/13/13 15/15/15 16/16/16
f 17/17/17 19/19/19 20/20/20
f 19/19/19 17/17/17 18/18/18
f 23/23/23 21/21/21 22/22/22
f 21/21/21 23/23/23 24/24/24
