# Dump hierarchy from SolidWorks 
# Assembly: C:\Users\Amin\Documents\SolidCAD\sim2\SinlgeBotAssem.SLDASM


         -Comments [CommentsFolder]
         -Favorites [FavoriteFolder]
         -History [HistoryFolder]
         -Selection Sets [SelectionSetFolder]
         -Sensors [SensorFolder]
         -Live Section Planes [LiveSectionFolder]
         -Design Binder [DocsFolder]
         -Annotations [DetailCabinet]
         -Lights, Cameras and Scene [EnvFolder]
           -Ambient [AmbientLight]
           -Directional1 [DirectionLight]
           -Directional2 [DirectionLight]
           -Directional3 [DirectionLight]
         -Simulation [AEMSimFeature]
         -Equations [EqnFolder]
         -Front Plane [RefPlane]
         -Top Plane [RefPlane]
         -Right Plane [RefPlane]
         -Origin [OriginProfileFeature]
         -graound-1 [Reference]
         -single_bot1-1 [Reference]
         -leg-1 [Reference]
         -Mates [MateGroup]
           -Parallel22 [MateParallel]
           -Concentric31 [MateConcentric]
           -Coincident81 [MateCoincident]
   +graound-1 <Default>
           -Comments [CommentsFolder]
           -Favorites [FavoriteFolder]
           -History [HistoryFolder]
           -Selection Sets [SelectionSetFolder]
           -Sensors [SensorFolder]
           -Design Binder [DocsFolder]
           -Annotations [DetailCabinet]
           -Surface Bodies [SurfaceBodyFolder]
           -Solid Bodies [SolidBodyFolder]
           -Lights, Cameras and Scene [EnvFolder]
             -Ambient [AmbientLight]
             -Directional1 [DirectionLight]
             -Directional2 [DirectionLight]
             -Directional3 [DirectionLight]
           -Equations [EqnFolder]
           -Material <not specified> [MaterialFolder]
           -Front Plane [RefPlane]
           -Top Plane [RefPlane]
           -Right Plane [RefPlane]
           -Origin [OriginProfileFeature]
           -Sketch1 [ProfileFeature]
   +single_bot1-1 <Default>
           -Comments [CommentsFolder]
           -Favorites [FavoriteFolder]
           -History [HistoryFolder]
           -Selection Sets [SelectionSetFolder]
           -Sensors [SensorFolder]
           -Design Binder [DocsFolder]
           -Annotations [DetailCabinet]
           -Surface Bodies [SurfaceBodyFolder]
           -Solid Bodies [SolidBodyFolder]
           -Lights, Cameras and Scene [EnvFolder]
             -Ambient [AmbientLight]
             -Directional1 [DirectionLight]
             -Directional2 [DirectionLight]
             -Directional3 [DirectionLight]
           -Equations [EqnFolder]
           -Material <not specified> [MaterialFolder]
           -Front Plane [RefPlane]
           -Top Plane [RefPlane]
           -Right Plane [RefPlane]
           -Origin [OriginProfileFeature]
           -SparkFun_Buck-Boost-1-solid1 [BaseBody]
           -SparkFun_Buck-Boost-1-solid2 [BaseBody]
           -SparkFun_Buck-Boost-1-solid3 [BaseBody]
           -SparkFun_Buck-Boost-1-solid4 [BaseBody]
           -SparkFun_Buck-Boost-1-solid5 [BaseBody]
           -SparkFun_Buck-Boost-1-solid6 [BaseBody]
           -SparkFun_Buck-Boost-1-solid7 [BaseBody]
           -SparkFun_Buck-Boost-1-solid8 [BaseBody]
           -SparkFun_Buck-Boost-1-solid9 [BaseBody]
           -SparkFun_Buck-Boost-1-solid10 [BaseBody]
           -SparkFun_Buck-Boost-1-solid11 [BaseBody]
           -SparkFun_Buck-Boost-1-solid12 [BaseBody]
           -SparkFun_Buck-Boost-1-solid13 [BaseBody]
           -SparkFun_Buck-Boost-1-solid14 [BaseBody]
           -SparkFun_Buck-Boost-1-solid15 [BaseBody]
           -SparkFun_Buck-Boost-1-solid16 [BaseBody]
           -SparkFun_Buck-Boost-1-solid17 [BaseBody]
           -SparkFun_Buck-Boost-1-solid18 [BaseBody]
           -SparkFun_Buck-Boost-1-solid19 [BaseBody]
           -SparkFun_Buck-Boost-1-solid20 [BaseBody]
           -SparkFun_Buck-Boost-1-solid21 [BaseBody]
           -SparkFun_Buck-Boost-1-solid22 [BaseBody]
           -SparkFun_Buck-Boost-1-solid23 [BaseBody]
           -SparkFun_Buck-Boost-1-solid24 [BaseBody]
           -SparkFun_Buck-Boost-1-solid25 [BaseBody]
           -SparkFun_Buck-Boost-1-solid26 [BaseBody]
           -SparkFun_Buck-Boost-1-solid27 [BaseBody]
           -SparkFun_Buck-Boost-1-solid28 [BaseBody]
           -SparkFun_Buck-Boost-1-solid29 [BaseBody]
           -SparkFun_Buck-Boost-1-solid30 [BaseBody]
           -SparkFun_Buck-Boost-1-solid31 [BaseBody]
           -SparkFun_Buck-Boost-1-solid32 [BaseBody]
           -SparkFun_Buck-Boost-1-solid33 [BaseBody]
           -SparkFun_Buck-Boost-1-solid34 [BaseBody]
           -SparkFun_Buck-Boost-1-solid35 [BaseBody]
           -SparkFun_Buck-Boost-1-solid36 [BaseBody]
           -SparkFun_Buck-Boost-1-solid37 [BaseBody]
           -SparkFun_Buck-Boost-1-solid38 [BaseBody]
           -SparkFun_Buck-Boost-1-solid39 [BaseBody]
           -SparkFun_Buck-Boost-1-solid40 [BaseBody]
           -SparkFun_Buck-Boost-1-solid41 [BaseBody]
           -SparkFun_Buck-Boost-1-solid42 [BaseBody]
           -SparkFun_Buck-Boost-1-solid43 [BaseBody]
           -SparkFun_Buck-Boost-1-solid44 [BaseBody]
           -SparkFun_Buck-Boost-1-solid45 [BaseBody]
           -SparkFun_Buck-Boost-1-solid46 [BaseBody]
           -SparkFun_Buck-Boost-1-solid47 [BaseBody]
           -SparkFun_Buck-Boost-1-solid48 [BaseBody]
           -SparkFun_Buck-Boost-1-solid49 [BaseBody]
           -SparkFun_Buck-Boost-1-solid50 [BaseBody]
           -SparkFun_Buck-Boost-1-solid51 [BaseBody]
           -SparkFun_Buck-Boost-1-solid52 [BaseBody]
           -SparkFun_Buck-Boost-1-solid53 [BaseBody]
           -SparkFun_Buck-Boost-1-solid54 [BaseBody]
           -SparkFun_Buck-Boost-1-solid55 [BaseBody]
           -SparkFun_Buck-Boost-1-solid56 [BaseBody]
           -SparkFun_Buck-Boost-1-solid57 [BaseBody]
           -SparkFun_Buck-Boost-1-solid58 [BaseBody]
           -SparkFun_Buck-Boost-1-solid59 [BaseBody]
           -SparkFun_Buck-Boost-1-solid60 [BaseBody]
           -SparkFun_Buck-Boost-1-solid61 [BaseBody]
           -SparkFun_Buck-Boost-1-solid62 [BaseBody]
           -Photon_Proto_Shield_v10-1-solid1 [BaseBody]
           -Photon_Proto_Shield_v10-1-solid2 [BaseBody]
           -Photon_Proto_Shield_v10-1-solid3 [BaseBody]
           -Photon_Proto_Shield_v10-1-solid4 [BaseBody]
           -Photon_Proto_Shield_v10-1-solid5 [BaseBody]
           -Photon_Proto_Shield_v10-1-solid6 [BaseBody]
           -Photon_Proto_Shield_v10-1-solid7 [BaseBody]
           -Photon_Proto_Shield_v10-1-solid8 [BaseBody]
           -Photon_Proto_Shield_v10-1-solid9 [BaseBody]
           -Photon_Proto_Shield_v10-1-solid10 [BaseBody]
           -Photon_Proto_Shield_v10-1-solid11 [BaseBody]
           -Photon_Proto_Shield_v10-1-solid12 [BaseBody]
           -Photon_Proto_Shield_v10-1-solid13 [BaseBody]
           -micro_controller-1-solid1 [BaseBody]
           -micro_controller-1-solid2 [BaseBody]
           -micro_controller-1-solid3 [BaseBody]
           -micro_controller-1-solid4 [BaseBody]
           -micro_controller-1-solid5 [BaseBody]
           -micro_controller-1-solid6 [BaseBody]
           -micro_controller-1-solid7 [BaseBody]
           -micro_controller-1-solid8 [BaseBody]
           -micro_controller-1-solid9 [BaseBody]
           -micro_controller-1-solid10 [BaseBody]
           -micro_controller-1-solid11 [BaseBody]
           -micro_controller-1-solid12 [BaseBody]
           -micro_controller-1-solid13 [BaseBody]
           -micro_controller-1-solid14 [BaseBody]
           -micro_controller-1-solid15 [BaseBody]
           -micro_controller-1-solid16 [BaseBody]
           -micro_controller-1-solid17 [BaseBody]
           -micro_controller-1-solid18 [BaseBody]
           -micro_controller-1-solid19 [BaseBody]
           -micro_controller-1-solid20 [BaseBody]
           -micro_controller-1-solid21 [BaseBody]
           -micro_controller-1-solid22 [BaseBody]
           -micro_controller-1-solid23 [BaseBody]
           -micro_controller-1-solid24 [BaseBody]
           -micro_controller-1-solid25 [BaseBody]
           -micro_controller-1-solid26 [BaseBody]
           -micro_controller-1-solid27 [BaseBody]
           -micro_controller-1-solid28 [BaseBody]
           -micro_controller-1-solid29 [BaseBody]
           -micro_controller-1-solid30 [BaseBody]
           -micro_controller-1-solid31 [BaseBody]
           -micro_controller-1-solid32 [BaseBody]
           -micro_controller-1-solid33 [BaseBody]
           -micro_controller-1-solid34 [BaseBody]
           -micro_controller-1-solid35 [BaseBody]
           -micro_controller-1-solid36 [BaseBody]
           -micro_controller-1-solid37 [BaseBody]
           -micro_controller-1-solid38 [BaseBody]
           -micro_controller-1-solid39 [BaseBody]
           -micro_controller-1-solid40 [BaseBody]
           -micro_controller-1-solid41 [BaseBody]
           -micro_controller-1-solid42 [BaseBody]
           -micro_controller-1-solid43 [BaseBody]
           -micro_controller-1-solid44 [BaseBody]
           -micro_controller-1-solid45 [BaseBody]
           -micro_controller-1-solid46 [BaseBody]
           -micro_controller-1-solid47 [BaseBody]
           -micro_controller-1-solid48 [BaseBody]
           -micro_controller-1-solid49 [BaseBody]
           -micro_controller-1-solid50 [BaseBody]
           -micro_controller-1-solid51 [BaseBody]
           -micro_controller-1-solid52 [BaseBody]
           -micro_controller-1-solid53 [BaseBody]
           -micro_controller-1-solid54 [BaseBody]
           -micro_controller-1-solid55 [BaseBody]
           -micro_controller-1-solid56 [BaseBody]
           -micro_controller-1-solid57 [BaseBody]
           -micro_controller-1-solid58 [BaseBody]
           -micro_controller-1-solid59 [BaseBody]
           -micro_controller-1-solid60 [BaseBody]
           -micro_controller-1-solid61 [BaseBody]
           -micro_controller-1-solid62 [BaseBody]
           -micro_controller-1-solid63 [BaseBody]
           -micro_controller-1-solid64 [BaseBody]
           -micro_controller-1-solid65 [BaseBody]
           -micro_controller-1-solid66 [BaseBody]
           -micro_controller-1-solid67 [BaseBody]
           -micro_controller-1-solid68 [BaseBody]
           -micro_controller-1-solid69 [BaseBody]
           -micro_controller-1-solid70 [BaseBody]
           -micro_controller-1-solid71 [BaseBody]
           -micro_controller-1-solid72 [BaseBody]
           -micro_controller-1-solid73 [BaseBody]
           -micro_controller-1-solid74 [BaseBody]
           -micro_controller-1-solid75 [BaseBody]
           -micro_controller-1-solid76 [BaseBody]
           -micro_controller-1-solid77 [BaseBody]
           -micro_controller-1-solid78 [BaseBody]
           -micro_controller-1-solid79 [BaseBody]
           -micro_controller-1-solid80 [BaseBody]
           -micro_controller-1-solid81 [BaseBody]
           -micro_controller-1-solid82 [BaseBody]
           -micro_controller-1-solid83 [BaseBody]
           -micro_controller-1-solid84 [BaseBody]
           -micro_controller-1-solid85 [BaseBody]
           -micro_controller-1-solid86 [BaseBody]
           -micro_controller-1-solid87 [BaseBody]
           -micro_controller-1-solid88 [BaseBody]
           -micro_controller-1-solid89 [BaseBody]
           -micro_controller-1-solid90 [BaseBody]
           -micro_controller-1-solid91 [BaseBody]
           -micro_controller-1-solid92 [BaseBody]
           -micro_controller-1-solid93 [BaseBody]
           -micro_controller-1-solid94 [BaseBody]
           -micro_controller-1-solid95 [BaseBody]
           -micro_controller-1-solid96 [BaseBody]
           -micro_controller-1-solid97 [BaseBody]
           -micro_controller-1-solid98 [BaseBody]
           -micro_controller-1-solid99 [BaseBody]
           -micro_controller-1-solid100 [BaseBody]
           -micro_controller-1-solid101 [BaseBody]
           -micro_controller-1-solid102 [BaseBody]
           -micro_controller-1-solid103 [BaseBody]
           -micro_controller-1-solid104 [BaseBody]
           -micro_controller-1-solid105 [BaseBody]
           -micro_controller-1-solid106 [BaseBody]
           -micro_controller-1-solid107 [BaseBody]
           -micro_controller-1-solid108 [BaseBody]
           -micro_controller-1-solid109 [BaseBody]
           -micro_controller-1-solid110 [BaseBody]
           -micro_controller-1-solid111 [BaseBody]
           -micro_controller-1-solid112 [BaseBody]
           -micro_controller-1-solid113 [BaseBody]
           -micro_controller-1-solid114 [BaseBody]
           -micro_controller-1-solid115 [BaseBody]
           -micro_controller-1-solid116 [BaseBody]
           -micro_controller-1-solid117 [BaseBody]
           -micro_controller-1-solid118 [BaseBody]
           -micro_controller-1-solid119 [BaseBody]
           -micro_controller-1-solid120 [BaseBody]
           -micro_controller-1-solid121 [BaseBody]
           -micro_controller-1-solid122 [BaseBody]
           -micro_controller-1-solid123 [BaseBody]
           -28 mm spacer-1-solid1 [BaseBody]
           -lithium_1000ah-1-solid1 [BaseBody]
           -erm-1-solid1 [BaseBody]
           -erm-2-solid1 [BaseBody]
           -top ring.0011-1-solid1 [BaseBody]
           -pump_holder-1-solid1 [BaseBody]
           -botom_cap_r1-1-solid1 [BaseBody]
           -semi_sphere_3_8th_inch-1-solid1 [BaseBody]
           -semi_sphere_3_8th_inch-2-solid1 [BaseBody]
           -spacer_10mm-1-solid1 [BaseBody]
           -spacer_10mm-2-solid1 [BaseBody]
           -93657A205_NYLON UNTHREADED SPACER-1-solid1 [BaseBody]
           -93657A205_NYLON UNTHREADED SPACER-2-solid1 [BaseBody]
           -DC_motor-1-solid1 [BaseBody]
           -semi_sphere_3_8th_inch-3-solid1 [BaseBody]
           -28 mm spacer-2-solid1 [BaseBody]
           -92220A158_ALLOY STEEL LOW-PROFILE SOCKET HEAD SCREW-1-solid1 [BaseBody]
           -SparkFun_Motor_Driver-TB6612FNG_v11c-1-solid1 [BaseBody]
           -SparkFun_Motor_Driver-TB6612FNG_v11c-1-solid2 [BaseBody]
           -SparkFun_Motor_Driver-TB6612FNG_v11c-1-solid3 [BaseBody]
           -SparkFun_Motor_Driver-TB6612FNG_v11c-1-solid4 [BaseBody]
           -SparkFun_Motor_Driver-TB6612FNG_v11c-1-solid5 [BaseBody]
           -SparkFun_Motor_Driver-TB6612FNG_v11c-1-solid6 [BaseBody]
           -SparkFun_Motor_Driver-TB6612FNG_v11c-1-solid7 [BaseBody]
           -SparkFun_Motor_Driver-TB6612FNG_v11c-1-solid8 [BaseBody]
           -SparkFun_Motor_Driver-TB6612FNG_v11c-1-solid9 [BaseBody]
           -SparkFun_Motor_Driver-TB6612FNG_v11c-1-solid10 [BaseBody]
           -SparkFun_Motor_Driver-TB6612FNG_v11c-1-solid11 [BaseBody]
           -SparkFun_Motor_Driver-TB6612FNG_v11c-1-solid12 [BaseBody]
           -SparkFun_Motor_Driver-TB6612FNG_v11c-1-solid13 [BaseBody]
           -SparkFun_Motor_Driver-TB6612FNG_v11c-1-solid14 [BaseBody]
           -pump_1-1-solid1 [BaseBody]
           -92362A130_TYPE 18-8 STAINLESS STEEL NARROW HEX NUT-1-solid1 [BaseBody]
           -1p25 in spacer-1-solid1 [BaseBody]
           -93615A317_TYPE 18-8 SS LOW PROFILE SOCKET CAP SCREW-2-solid1 [BaseBody]
           -92220A157_ALLOY STEEL LOW-PROFILE SOCKET HEAD SCREW (1)-1-solid1 [BaseBody]
           -Sketch1 [ProfileFeature]
           -My_marker [CoordSys]
           -Sketch3 [ProfileFeature]
   +leg-1 <Default>
           -Comments [CommentsFolder]
           -Favorites [FavoriteFolder]
           -History [HistoryFolder]
           -Selection Sets [SelectionSetFolder]
           -Sensors [SensorFolder]
           -Design Binder [DocsFolder]
           -Annotations [DetailCabinet]
           -Surface Bodies [SurfaceBodyFolder]
           -Solid Bodies [SolidBodyFolder]
           -Lights, Cameras and Scene [EnvFolder]
             -Ambient [AmbientLight]
             -Directional1 [DirectionLight]
             -Directional2 [DirectionLight]
             -Directional3 [DirectionLight]
           -Equations [EqnFolder]
           -Material <not specified> [MaterialFolder]
           -Front Plane [RefPlane]
           -Top Plane [RefPlane]
           -Right Plane [RefPlane]
           -Origin [OriginProfileFeature]
           -Imported1 [BaseBody]
           -Sketch1 [ProfileFeature]
